<?xml version="1.0" encoding="UTF-8"?>
<svg width="60px" height="60px" viewBox="0 0 60 60" version="1.1" xmlns="http://www.w3.org/2000/svg" xmlns:xlink="http://www.w3.org/1999/xlink">
    <!-- Generator: Sketch 42 (36781) - http://www.bohemiancoding.com/sketch -->
    <title>Discord_Black</title>
    <desc>Created with Sketch.</desc>
    <defs></defs>
    <g id="Page-1" stroke="none" stroke-width="1" fill="none" fill-rule="evenodd" opacity="0.5">
        <g id="Social_icons_black" transform="translate(-160.000000, -1469.000000)" fill="#000000">
            <g id="Black" transform="translate(60.000000, 169.000000)">
                <g id="Discord" transform="translate(100.000000, 1300.000000)">
                    <path d="M0,30 C0,13.4314567 13.4314567,0 30,0 C46.5685433,0 60,13.4314567 60,30 C60,46.5685433 46.5685433,60 30,60 C13.4314567,60 0,46.5685433 0,30 Z M42.3685714,13 L18.6314286,13 C16.6297143,13 15,14.61 15,16.605 L15,40.265 C15,42.26 16.6297143,43.87 18.6314286,43.87 L38.7194286,43.87 L37.7805714,40.6325 L40.048,42.715 L42.1914286,44.675 L46,48 L46,16.605 C46,14.61 44.3702857,13 42.3685714,13 Z" id="Combined-Shape"></path>
                    <path d="M35.5308571,35.855 C35.5308571,35.855 34.8931429,35.1025 34.3617143,34.4375 C36.6822857,33.79 37.568,32.355 37.568,32.355 C36.8417143,32.8275 36.1508571,33.16 35.5308571,33.3875 C34.6451429,33.755 33.7948571,34 32.9622857,34.14 C31.2617143,34.455 29.7028571,34.3675 28.3742857,34.1225 C27.3645714,33.93 26.4965714,33.65 25.7702857,33.37 C25.3628571,33.2125 24.92,33.02 24.4771429,32.775 C24.424,32.74 24.3708571,32.7225 24.3177143,32.6875 C24.2822857,32.67 24.2645714,32.6525 24.2468571,32.635 C23.928,32.46 23.7508571,32.3375 23.7508571,32.3375 C23.7508571,32.3375 24.6011429,33.7375 26.8508571,34.4025 C26.3194286,35.0675 25.664,35.855 25.664,35.855 C21.7491429,35.7325 20.2611429,33.195 20.2611429,33.195 C20.2611429,27.56 22.812,22.9925 22.812,22.9925 C25.3628571,21.1025 27.7897143,21.155 27.7897143,21.155 L27.9668571,21.365 C24.7782857,22.275 23.308,23.6575 23.308,23.6575 C23.308,23.6575 23.6977143,23.4475 24.3531429,23.15 C26.2485714,22.3275 27.7542857,22.1 28.3742857,22.0475 C28.4805714,22.03 28.5691429,22.0125 28.6754286,22.0125 C29.756,21.8725 30.9782857,21.8375 32.2537143,21.9775 C33.9365714,22.17 35.7434286,22.66 37.5857143,23.6575 C37.5857143,23.6575 36.1862857,22.345 33.1748571,21.435 L33.4228571,21.155 C33.4228571,21.155 35.8497143,21.1025 38.4005714,22.9925 C38.4005714,22.9925 40.9514286,27.56 40.9514286,33.195 C40.9514286,33.195 39.4457143,35.7325 35.5308571,35.855 L35.5308571,35.855 Z M27.7926186,28 C26.7908612,28 26,28.9009009 26,30 C26,31.0990991 26.8084359,32 27.7926186,32 C28.7943761,32 29.5852373,31.0990991 29.5852373,30 C29.602812,28.9009009 28.7943761,28 27.7926186,28 Z M34.2073814,28 C33.2056239,28 32.4147627,28.9009009 32.4147627,30 C32.4147627,31.0990991 33.2231986,32 34.2073814,32 C35.2091388,32 36,31.0990991 36,30 C36,28.9009009 35.2091388,28 34.2073814,28 Z" id="Combined-Shape"></path>
                </g>
            </g>
        </g>
    </g>
</svg>