<?xml version="1.0" encoding="UTF-8"?>
<svg width="60px" height="60px" viewBox="0 0 60 60" version="1.1" xmlns="http://www.w3.org/2000/svg" xmlns:xlink="http://www.w3.org/1999/xlink">
    <!-- Generator: Sketch 42 (36781) - http://www.bohemiancoding.com/sketch -->
    <title>Geo_Black</title>
    <desc>Created with Sketch.</desc>
    <defs></defs>
    <g id="Page-1" stroke="none" stroke-width="1" fill="none" fill-rule="evenodd" opacity="0.5">
        <g id="Social_icons_black" transform="translate(-460.000000, -669.000000)" fill="#000000">
            <g id="Black" transform="translate(60.000000, 169.000000)">
                <g id="Geo" transform="translate(400.000000, 500.000000)">
                    <path d="M30,60 C13.4314575,60 0,46.5685425 0,30 C0,13.4314575 13.4314575,0 30,0 C46.5685425,0 60,13.4314575 60,30 C60,46.5685425 46.5685425,60 30,60 Z M19.1303436,29.259614 C21.9811466,35.9557517 30.0345121,48 30.0345121,48 C30.0345121,48 39.3658203,33.3885602 41.2761719,28.308284 L41.2633872,28.308284 C41.7398361,27.002542 42,25.5911245 42,24.1183432 C42,17.4255671 36.627417,12 30,12 C23.372583,12 18,17.4255671 18,24.1183432 C18,25.9563868 18.4052119,27.6988548 19.1303436,29.259614 L19.1303436,29.259614 Z" id="Combined-Shape"></path>
                    <path d="M30,31 C33.8659932,31 37,27.8659932 37,24 C37,20.1340068 33.8659932,17 30,17 C26.1340068,17 23,20.1340068 23,24 C23,27.8659932 26.1340068,31 30,31 L30,31 Z" id="Path"></path>
                </g>
            </g>
        </g>
    </g>
</svg>