<?xml version="1.0" encoding="UTF-8"?>
<svg width="60px" height="60px" viewBox="0 0 60 60" version="1.1" xmlns="http://www.w3.org/2000/svg" xmlns:xlink="http://www.w3.org/1999/xlink">
    <!-- Generator: Sketch 42 (36781) - http://www.bohemiancoding.com/sketch -->
    <title>Google_Black</title>
    <desc>Created with Sketch.</desc>
    <defs></defs>
    <g id="Page-1" stroke="none" stroke-width="1" fill="none" fill-rule="evenodd" opacity="0.5">
        <g id="Social_icons_black" transform="translate(-460.000000, -269.000000)" fill="#000000">
            <g id="Black" transform="translate(60.000000, 169.000000)">
                <g id="Google" transform="translate(400.000000, 100.000000)">
                    <path d="M0,30 C0,13.4314567 13.4314567,0 30,0 C46.5685433,0 60,13.4314567 60,30 C60,46.5685433 46.5685433,60 30,60 C13.4314567,60 0,46.5685433 0,30 Z M29.95671,22.0266667 C32.3942985,22.0266667 34.0385891,23.0811111 34.9761231,23.9622222 L38.6397178,20.38 C36.389636,18.2855556 33.461645,17 29.95671,17 C24.8796024,17 20.4948276,19.9177778 18.3601347,24.1644444 L22.5574026,27.4288889 C23.6103255,24.2944444 26.5238929,22.0266667 29.95671,22.0266667 Z M42.4187013,30.2888889 C42.4187013,29.22 42.3321597,28.44 42.1446529,27.6311111 L29.95671,27.6311111 L29.95671,32.4555556 L37.1108161,32.4555556 C36.9665801,33.6544444 36.1877056,35.46 34.4568735,36.6733333 L38.5531762,39.8511111 C41.0051884,37.5833333 42.4187013,34.2466667 42.4187013,30.2888889 Z M22.5718262,32.5711111 C22.2977778,31.7622222 22.1391182,30.8955556 22.1391182,30 C22.1391182,29.1044444 22.2977778,28.2377778 22.5574026,27.4288889 L18.3601347,24.1644444 C17.480295,25.9266667 16.975469,27.9055556 16.975469,30 C16.975469,32.0944444 17.480295,34.0733333 18.3601347,35.8355556 L22.5718262,32.5711111 Z M29.95671,43 C33.461645,43 36.4040596,41.8444444 38.5531762,39.8511111 L34.4568735,36.6733333 C33.3606798,37.4388889 31.8894725,37.9733333 29.95671,37.9733333 C26.5238929,37.9733333 23.6103255,35.7055556 22.5718262,32.5711111 L18.3745583,35.8355556 C20.5092512,40.0822222 24.8796024,43 29.95671,43 Z" id="Combined-Shape"></path>
                </g>
            </g>
        </g>
    </g>
</svg>