<?xml version="1.0" encoding="UTF-8"?>
<svg width="60px" height="60px" viewBox="0 0 60 60" version="1.1" xmlns="http://www.w3.org/2000/svg" xmlns:xlink="http://www.w3.org/1999/xlink">
    <!-- Generator: Sketch 42 (36781) - http://www.bohemiancoding.com/sketch -->
    <title>Kaixin001_Black</title>
    <desc>Created with Sketch.</desc>
    <defs></defs>
    <g id="Page-1" stroke="none" stroke-width="1" fill="none" fill-rule="evenodd" opacity="0.5">
        <g id="Social_icons_black" transform="translate(-660.000000, -1469.000000)" fill="#000000">
            <g id="Black" transform="translate(60.000000, 169.000000)">
                <g id="Kaixin001" transform="translate(600.000000, 1300.000000)">
                    <path d="M0,30 C0,13.4314567 13.4314567,0 30,0 C46.5685433,0 60,13.4314567 60,30 C60,46.5685433 46.5685433,60 30,60 C13.4314567,60 0,46.5685433 0,30 Z M43.6185,24.0704 C37.5675,24.1484 36.5535,21.7884 36.2955,20.6794 C35.9845,19.3464 36.0855,19.7444 35.2825,15.6674 C34.3785,9.7844 30.8245,11.1334 30.8245,11.1334 C28.1095,11.5874 24.1255,15.4164 23.2215,16.7734 C21.8645,18.1324 21.6395,19.4404 17.7915,17.6494 C10.3985,13.5714 11.0125,21.0154 11.0125,21.0154 C11.8475,26.6424 13.7905,29.0944 15.8475,31.0634 C14.6285,36.2464 14.9325,39.4854 15.6575,42.6484 C17.0355,48.6644 20.7785,45.9264 22.0645,44.9844 C23.3505,44.0404 26.2215,41.0424 26.2215,41.0424 C26.2215,41.0424 27.7935,43.0684 31.8145,45.4774 C39.0165,49.7934 40.5325,46.0204 40.3605,42.9344 C40.2215,40.4174 38.9195,35.1694 38.9195,35.1694 C43.4925,34.2654 45.9905,31.2164 45.9905,31.2164 C52.7355,24.3564 43.6185,24.0704 43.6185,24.0704 Z" id="Combined-Shape"></path>
                    <path d="M19.6127,29.7438 C19.6127,29.7438 20.6787,34.3948 25.2067,36.0798 C29.6367,37.7288 34.5577,33.3118 34.5577,33.3118 C34.5577,33.3118 30.3807,39.5008 24.6317,37.4658 C20.1887,35.8928 19.6127,29.7438 19.6127,29.7438" id="Fill-3"></path>
                    <path d="M28.7279,25.2364 C28.0059,27.9354 26.0969,29.7694 24.4649,29.3324 C22.8329,28.8954 22.0959,26.3534 22.8189,23.6544 C23.5399,20.9564 25.4499,19.1214 27.0819,19.5584 C28.7139,19.9964 29.4519,22.5374 28.7279,25.2364 Z M28.2387,23.4503 C28.4637,22.0783 27.9957,20.8623 27.1957,20.7313 C26.3967,20.6003 25.5667,21.6063 25.3427,22.9773 C25.1187,24.3483 25.5857,25.5653 26.3847,25.6963 C27.1847,25.8263 28.0147,24.8213 28.2387,23.4503 Z" id="Combined-Shape"></path>
                    <path d="M34.4828,26.6847 C33.7598,29.3837 31.8518,31.2177 30.2198,30.7807 C28.5868,30.3437 27.8498,27.8017 28.5728,25.1027 C29.2948,22.4047 31.2038,20.5697 32.8358,21.0067 C34.4678,21.4447 35.2058,23.9857 34.4828,26.6847 Z M34.1205,24.6695 C34.3445,23.2975 33.8775,22.0815 33.0775,21.9505 C32.2775,21.8195 31.4485,22.8245 31.2245,24.1955 C31.0005,25.5675 31.4675,26.7845 32.2665,26.9145 C33.0655,27.0455 33.8955,26.0405 34.1205,24.6695 Z" id="Combined-Shape"></path>
                    <path d="M27.9847,22.756 C27.9847,23.134 27.7167,23.442 27.3867,23.442 C27.0577,23.442 26.7907,23.134 26.7907,22.756 C26.7907,22.377 27.0577,22.07 27.3867,22.07 C27.7167,22.07 27.9847,22.377 27.9847,22.756" id="Fill-8"></path>
                    <path d="M33.8666,23.8995 C33.8666,24.2785 33.5986,24.5855 33.2696,24.5855 C32.9396,24.5855 32.6726,24.2785 32.6726,23.8995 C32.6726,23.5215 32.9396,23.2135 33.2696,23.2135 C33.5986,23.2135 33.8666,23.5215 33.8666,23.8995" id="Fill-9"></path>
                    <path d="M20.9154,25.9381 C20.9154,27.3161 19.8744,28.4341 18.5914,28.4341 C17.3074,28.4341 16.2674,27.3161 16.2674,25.9381 C16.2674,24.5591 17.3074,23.4421 18.5914,23.4421 C19.8744,23.4421 20.9154,24.5591 20.9154,25.9381" id="Fill-10"></path>
                    <path d="M39.6644,30.6061 C39.6644,31.9841 38.6234,33.1021 37.3404,33.1021 C36.0564,33.1021 35.0164,31.9841 35.0164,30.6061 C35.0164,29.2271 36.0564,28.1101 37.3404,28.1101 C38.6234,28.1101 39.6644,29.2271 39.6644,30.6061" id="Fill-11"></path>
                </g>
            </g>
        </g>
    </g>
</svg>