<?xml version="1.0" encoding="UTF-8"?>
<svg width="60px" height="60px" viewBox="0 0 60 60" version="1.1" xmlns="http://www.w3.org/2000/svg" xmlns:xlink="http://www.w3.org/1999/xlink">
    <!-- Generator: Sketch 42 (36781) - http://www.bohemiancoding.com/sketch -->
    <title>PayPal_Black</title>
    <desc>Created with Sketch.</desc>
    <defs></defs>
    <g id="Page-1" stroke="none" stroke-width="1" fill="none" fill-rule="evenodd" opacity="0.5">
        <g id="Social_icons_black" transform="translate(-60.000000, -769.000000)" fill="#000000">
            <g id="Black" transform="translate(60.000000, 169.000000)">
                <g id="PayPal" transform="translate(0.000000, 600.000000)">
                    <path d="M24.7571322,41.8080855 L24.596,42.83 L24.197,45.363 C24.13,45.791 24.46,46.177 24.892,46.177 L29.773,46.177 C30.351,46.177 30.842,45.757 30.933,45.187 L30.981,44.939 L31.9,39.107 L31.959,38.787 C32.049,38.215 32.541,37.795 33.119,37.795 L33.849,37.795 C38.578,37.795 42.28,35.875 43.362,30.319 C43.814,27.998 43.58,26.06 42.384,24.697 C42.022,24.286 41.573,23.945 41.048,23.667 C41.02,23.846 40.988,24.029 40.952,24.217 C40.9179709,24.3917123 40.8816752,24.5632786 40.843151,24.73174 C40.7502366,24.6736298 40.6525569,24.6174038 40.55,24.563 L40.024,24.265 L40.024,23.589 L40.036,23.512 C40.202,22.457 40.199,21.592 40.029,20.868 C39.867,20.178 39.532,19.551 39.006,18.951 C37.884,17.672 35.735,17.024 32.621,17.024 L23.241,17.024 C23.165,17.024 23.092,17.051 23.035,17.1 C22.978,17.149 22.939,17.218 22.927,17.292 L19.061,41.805 L24.624,41.805 L24.7571322,41.8080855 Z M0,30 C0,13.4314567 13.4314567,0 30,0 C46.5685433,0 60,13.4314567 60,30 C60,46.5685433 46.5685433,60 30,60 C13.4314567,60 0,46.5685433 0,30 Z" id="Combined-Shape"></path>
                    <path d="M39.754,23.151 C39.565,23.096 39.37,23.046 39.17,23.001 C38.969,22.957 38.763,22.918 38.551,22.884 C37.809,22.764 36.996,22.707 36.125,22.707 L28.773,22.707 C28.592,22.707 28.42,22.748 28.266,22.822 C27.927,22.985 27.675,23.306 27.614,23.699 L26.05,33.605 L26.005,33.894 C26.108,33.242 26.665,32.762 27.326,32.762 L30.078,32.762 C35.483,32.762 39.715,30.567 40.952,24.217 C40.989,24.029 41.02,23.846 41.048,23.667 C40.735,23.501 40.396,23.359 40.031,23.238 C39.941,23.208 39.848,23.179 39.754,23.151 L39.754,23.151 Z" id="Shape"></path>
                </g>
            </g>
        </g>
    </g>
</svg>