<?xml version="1.0" encoding="UTF-8"?>
<svg width="60px" height="60px" viewBox="0 0 60 60" version="1.1" xmlns="http://www.w3.org/2000/svg" xmlns:xlink="http://www.w3.org/1999/xlink">
    <!-- Generator: Sketch 42 (36781) - http://www.bohemiancoding.com/sketch -->
    <title>Playstation_Black</title>
    <desc>Created with Sketch.</desc>
    <defs></defs>
    <g id="Page-1" stroke="none" stroke-width="1" fill="none" fill-rule="evenodd" opacity="0.5">
        <g id="Social_icons_black" transform="translate(-60.000000, -1069.000000)" fill="#000000">
            <g id="Black" transform="translate(60.000000, 169.000000)">
                <g id="Playstation" transform="translate(0.000000, 900.000000)">
                    <path d="M0,30 C0,13.4314567 13.4314567,0 30,0 C46.5685433,0 60,13.4314567 60,30 C60,46.5685433 46.5685433,60 30,60 C13.4314567,60 0,46.5685433 0,30 Z M26,16 L26,42.1242479 L31.5757138,44 L31.5757138,22.0876097 C31.5757138,21.0617407 32.0098301,20.3760396 32.7019877,20.6142644 C33.6137333,20.8814625 33.7918323,21.8279232 33.7918323,22.8537922 L33.7918323,31.6047982 C37.2647633,33.3818265 40,31.6037251 40,26.9046871 C40,22.0876097 38.4001446,19.9500249 33.6784966,18.2320162 C31.8226238,17.5688499 28.3689194,16.4646457 26,16 Z M33,40.6851204 L33,44 L45.3522751,39.5049484 C45.3522751,39.5049484 47.012654,38.8862679 47.6919933,38.0201152 C48.3682539,37.1539626 48.0675796,35.8968454 45.4005061,35.0410907 C43.0361594,34.1323063 40.022233,33.8214064 37.5614242,34.0969531 C35.0995892,34.3724999 33.3489053,34.9994988 33.3489053,34.9994988 L33,35.1180359 L33,38.559771 L39.05556,36.3990684 C40.0868831,36.0247407 41.6046213,35.9436364 42.4430203,36.2223025 C43.2793669,36.4999289 43.119281,37.0281469 42.0910364,37.4014347 L33,40.6851204 Z M14.8537381,39.0204206 C18.0647369,40.0320824 21.3251529,40.2303424 24.389023,39.7523751 C24.5878151,39.7202248 24.8045772,39.6880745 25,39.6537809 L25,36.5866452 L21.9383762,37.6443891 C20.809641,38.0323357 19.1496704,38.113783 18.2320817,37.8265739 C17.3167393,37.5393649 17.4885766,36.9960253 18.6184348,36.6080787 L25,34.4272187 L25,31 L16.1296019,34.0071219 C16.1296019,34.0071219 13.9855667,34.6812059 12.719811,35.5739117 C11.3563439,36.5394915 11.8561321,38.2155922 14.8537381,39.0204206 Z" id="Combined-Shape"></path>
                </g>
            </g>
        </g>
    </g>
</svg>