<?xml version="1.0" encoding="UTF-8"?>
<svg width="60px" height="60px" viewBox="0 0 60 60" version="1.1" xmlns="http://www.w3.org/2000/svg" xmlns:xlink="http://www.w3.org/1999/xlink">
    <!-- Generator: Sketch 42 (36781) - http://www.bohemiancoding.com/sketch -->
    <title>Slack_Black</title>
    <desc>Created with Sketch.</desc>
    <defs></defs>
    <g id="Page-1" stroke="none" stroke-width="1" fill="none" fill-rule="evenodd" opacity="0.5">
        <g id="Social_icons_black" transform="translate(-260.000000, -269.000000)" fill="#000000">
            <g id="Black" transform="translate(60.000000, 169.000000)">
                <g id="Slack" transform="translate(200.000000, 100.000000)">
                    <path d="M37.3854823,24.2710714 C39.1301869,23.7033745 40.2523892,23.3382295 40.2523892,23.3382295 C41.7468853,22.8519344 42.5648507,21.2443279 42.0792574,19.7474098 C41.593664,18.2507541 39.9883772,17.4316066 38.4936193,17.9179016 L35.6268976,18.8510189 C35.0599634,17.1036984 34.6953049,15.9798033 34.6953049,15.9798033 C34.2097115,14.4828852 32.6044248,13.6637377 31.1099287,14.1502951 C29.6151708,14.6365902 28.7972052,16.2441967 29.2830604,17.7408525 L30.2150738,20.6125664 L24.2265312,22.5618357 C23.6594046,20.8138426 23.2945996,19.6894426 23.2945996,19.6894426 C22.8087443,18.1927869 21.2034575,17.3736393 19.7089615,17.8599344 C18.2142035,18.3462295 17.396238,19.9538361 17.8820932,21.4507541 L18.8144326,24.3234725 L15.8556446,25.2865574 C14.4593673,25.7922623 13.6746652,27.3028196 14.0916364,28.7527869 C14.526156,30.2651804 16.1301332,31.1871475 17.6136287,30.7045246 C17.6263319,30.7003827 18.7853622,30.3232479 20.5728839,29.7416144 L22.5198646,35.7406275 L19.5601928,36.704 C18.1639155,37.2097049 17.3792134,38.7202622 17.7959227,40.1702295 C18.2307042,41.682623 19.8346814,42.6045901 21.3179151,42.1219672 C21.3306798,42.1178245 22.490183,41.7405464 24.2783011,41.1587237 L25.2398541,44.1214426 C25.7450912,45.5197377 27.2534689,46.3055737 28.7013437,45.888 C30.2115548,45.4528525 31.1321917,43.8465574 30.6502651,42.360918 C30.6461298,42.3481983 30.2696489,41.1878312 29.6889996,39.3981729 C31.6450602,38.7616965 33.7273776,38.0841409 35.6793312,37.4490034 L36.6408213,40.411541 C37.1460585,41.8098361 38.6544361,42.5956721 40.1023109,42.1783606 C41.612522,41.7429509 42.5331589,40.1366557 42.0512323,38.6512787 C42.047097,38.6385 41.6706083,37.4781172 41.0899456,35.6884663 C42.8345491,35.1207967 43.9566755,34.7556721 43.9566755,34.7556721 C45.4514335,34.269377 46.2691371,32.6617705 45.7835437,31.1648525 C45.2979504,29.6681967 43.6926636,28.8490491 42.1981675,29.3353442 L39.3313918,30.2684791 C38.6959916,28.3101356 38.0195832,26.2254055 37.3854823,24.2710714 Z M31.9739167,26.0319025 L33.9205058,32.0297213 L27.9308819,33.9793426 C27.2953909,32.0206431 26.6188608,29.9354507 25.9846551,27.9807087 C27.9403565,27.3443553 30.02227,26.6669354 31.9739167,26.0319025 Z M0,30 C0,13.4314567 13.4314567,0 30,0 C46.5685433,0 60,13.4314567 60,30 C60,46.5685433 46.5685433,60 30,60 C13.4314567,60 0,46.5685433 0,30 Z" id="Combined-Shape"></path>
                </g>
            </g>
        </g>
    </g>
</svg>