<?xml version="1.0" encoding="UTF-8"?>
<svg width="60px" height="60px" viewBox="0 0 60 60" version="1.1" xmlns="http://www.w3.org/2000/svg" xmlns:xlink="http://www.w3.org/1999/xlink">
    <!-- Generator: Sketch 42 (36781) - http://www.bohemiancoding.com/sketch -->
    <title>Steam_Black</title>
    <desc>Created with Sketch.</desc>
    <defs></defs>
    <g id="Page-1" stroke="none" stroke-width="1" fill="none" fill-rule="evenodd" opacity="0.5">
        <g id="Social_icons_black" transform="translate(-460.000000, -1169.000000)" fill="#000000">
            <g id="Black" transform="translate(60.000000, 169.000000)">
                <g id="Steam" transform="translate(400.000000, 1000.000000)">
                    <path d="M1.23332384,38.7512201 C4.98208574,51.0515067 16.4286665,60 29.9677766,60 C46.5538131,60 60,46.5682403 60,30 C60,13.4315021 46.5538131,0 29.9677766,0 C14.0517293,0 1.02857143,12.3679828 0,28.006867 C0.0118907692,28.026813 0.0237371762,28.0467126 0.035538974,28.0665666 C0.0376985418,28.0242357 0.0390192724,28.0022455 0.0390117605,28.0022455 L16.0940647,34.6579932 C16.5308409,34.3687252 16.9963423,34.1181984 17.4931336,33.9141611 C18.6200829,33.4466833 19.8085862,33.2374805 20.9929858,33.2917183 L28.3045635,22.5960325 C28.3019987,22.5485099 28.3019987,22.497888 28.3019987,22.4472661 C28.3019987,16.1350242 33.3930193,11 39.6509994,11 C45.9115441,11 51,16.1350242 51,22.4472661 C51,28.7589914 45.9115441,33.8986646 39.6509994,33.8986646 C39.5663627,33.8986646 39.4791614,33.8960818 39.3945248,33.8934991 L28.9329262,41.4222164 C28.9637032,42.584454 28.7508292,43.7492744 28.2943045,44.8598571 C26.5400183,49.1084814 21.6775165,51.1307749 17.4603048,49.3564254 C14.8827352,48.274253 13.1356303,46.0246775 12.5657437,43.4600064 L1.23332384,38.7512201 Z" id="Combined-Shape"></path>
                    <path d="M26.5477125,44.1211905 C25.189936,47.4038662 21.4438682,48.9612646 18.1876668,47.5949897 C16.6854951,46.9647986 15.5513644,45.8103092 14.8970978,44.4337033 L18.5916142,45.9756052 C20.9929858,46.9828779 23.7480359,45.8361367 24.746235,43.4186824 C25.7475118,40.9986453 24.6115858,38.2196059 22.2114966,37.2123333 L18.3923335,35.6187763 C19.8660365,35.0557368 21.5413285,35.0350747 23.1065929,35.6910933 C24.6846811,36.3522774 25.9090908,37.5971631 26.5579715,39.1881373 C27.2068522,40.7791115 27.2042875,42.5353818 26.5477125,44.1211905 L26.5477125,44.1211905 Z" id="Shape"></path>
                    <path d="M39.6509994,30.0761941 C35.4832873,30.0761941 32.0901284,26.6540499 32.0901284,22.4472661 C32.0901284,18.2438399 35.4832873,14.8206626 39.6509994,14.8206626 C43.8212762,14.8206626 47.214435,18.2438399 47.214435,22.4472661 C47.214435,26.6540499 43.8212762,30.0761941 39.6509994,30.0761941 Z M33.9854756,22.4356437 L33.9854756,22.4356437 C33.9854756,25.600546 36.5297036,28.1649588 39.6638231,28.1649588 C42.8005073,28.1649588 45.3447353,25.600546 45.3447353,22.4356437 C45.3447353,19.2709997 42.8005073,16.7042624 39.6638231,16.7042624 C36.5297036,16.7042624 33.9854756,19.2709997 33.9854756,22.4356437 Z" id="Combined-Shape"></path>
                </g>
            </g>
        </g>
    </g>
</svg>