<?xml version="1.0" encoding="UTF-8"?>
<svg width="60px" height="60px" viewBox="0 0 60 60" version="1.1" xmlns="http://www.w3.org/2000/svg" xmlns:xlink="http://www.w3.org/1999/xlink">
    <!-- Generator: Sketch 42 (36781) - http://www.bohemiancoding.com/sketch -->
    <title>Tripadvisor_Black</title>
    <desc>Created with Sketch.</desc>
    <defs></defs>
    <g id="Page-1" stroke="none" stroke-width="1" fill="none" fill-rule="evenodd" opacity="0.5">
        <g id="Social_icons_black" transform="translate(-160.000000, -669.000000)" fill="#000000">
            <g id="Black" transform="translate(60.000000, 169.000000)">
                <g id="Tripadvisor" transform="translate(100.000000, 500.000000)">
                    <path d="M0,30 C0,13.4314567 13.4314567,0 30,0 C46.5685433,0 60,13.4314567 60,30 C60,46.5685433 46.5685433,60 30,60 C13.4314567,60 0,46.5685433 0,30 Z M47.4813333,22.6744118 L41.5493333,22.6703529 C38.2226667,20.4907647 34.184,19.3353529 29.708,19.3353529 C25.0626667,19.3353529 20.868,20.5191765 17.56,22.7136471 L12,22.7177059 C12,22.7177059 13.3066667,24.509 13.7293333,26.3057059 C12.648,27.7966471 12.0053333,29.6312353 12.0053333,31.6214118 C12.0053333,36.5921176 15.992,40.6360588 20.892,40.6360588 C23.6933333,40.6360588 26.1906667,39.3115294 27.82,37.2537059 L29.712,40.1287059 L31.6186667,37.228 C32.476,38.3347059 33.5826667,39.2317059 34.88,39.8432353 C37.0373333,40.8498235 39.4546667,40.9472353 41.68,40.1138235 C46.2773333,38.3874706 48.6373333,33.1881176 46.9373333,28.5299412 C46.6386667,27.7087059 46.2306667,26.9645882 45.7426667,26.2948824 C46.1586667,24.486 47.4813333,22.6744118 47.4813333,22.6744118 Z" id="Combined-Shape"></path>
                    <path d="M26.7626667,35.6504706 C25.4866667,37.5594706 23.3293333,38.8177059 20.8893333,38.8177059 C16.9773333,38.8177059 13.7946667,35.5855294 13.7946667,31.6227647 C13.7946667,27.6518824 16.9786667,24.4251176 20.8893333,24.4251176 C24.8,24.4251176 27.9826667,27.6518824 27.9826667,31.6227647 C27.9826667,31.8649412 27.936,32.0935882 27.912,32.3276471 C27.7933333,33.5452941 27.408,34.6858235 26.7626667,35.6504706 Z M16.3853333,31.5361765 C16.3853333,33.9944706 18.356,35.9900588 20.7773333,35.9900588 C23.1933333,35.9900588 25.1626667,33.9944706 25.1626667,31.5361765 C25.1626667,29.0846471 23.192,27.0877059 20.7773333,27.0877059 C18.356,27.0890588 16.3853333,29.0832941 16.3853333,31.5361765 Z" id="Combined-Shape"></path>
                    <path d="M41.0573333,38.4077647 C39.28,39.0720588 37.352,38.9976471 35.6306667,38.1912941 C34.4093333,37.6176471 33.4093333,36.7179412 32.6893333,35.6017647 C32.396,35.1498824 32.1373333,34.6695882 31.948,34.146 C31.732,33.5534118 31.624,32.9418824 31.5653333,32.3262941 C31.4466667,31.0775294 31.6253333,29.8125294 32.156,28.6435882 C32.9506667,26.8969412 34.3666667,25.567 36.144,24.9013529 C39.8146667,23.5281176 43.9,25.4384706 45.256,29.1617647 C46.6106667,32.8837059 44.7266667,37.0277647 41.0573333,38.4077647 Z M34.192,31.5361765 C34.192,33.9944706 36.16,35.9900588 38.5813333,35.9900588 C40.9986667,35.9900588 42.9653333,33.9944706 42.9653333,31.5361765 C42.9653333,29.0846471 40.9986667,27.0877059 38.5813333,27.0877059 C36.1613333,27.0890588 34.192,29.0832941 34.192,31.5361765 Z" id="Combined-Shape"></path>
                    <path d="M17.8986667,31.5361765 C17.8986667,29.9288824 19.1933333,28.6205882 20.78,28.6205882 C22.364,28.6205882 23.652,29.9302353 23.652,31.5361765 C23.652,33.1488824 22.364,34.4585294 20.78,34.4585294 C19.1933333,34.4598824 17.8986667,33.1502353 17.8986667,31.5361765 Z M22.2506667,31.5361765 C22.2506667,30.7108824 21.5893333,30.0411765 20.7746667,30.0425294 C19.9573333,30.0425294 19.2973333,30.7108824 19.2973333,31.5361765 C19.2973333,32.3628235 19.9573333,33.0392941 20.7746667,33.0392941 C21.5893333,33.0392941 22.2506667,32.3628235 22.2506667,31.5361765 Z" id="Combined-Shape"></path>
                    <path d="M35.7053333,31.5361765 C35.7053333,29.9288824 36.996,28.6205882 38.584,28.6205882 C40.168,28.6205882 41.4546667,29.9302353 41.4546667,31.5361765 C41.4546667,33.1488824 40.168,34.4585294 38.584,34.4585294 C36.9946667,34.4598824 35.7053333,33.1502353 35.7053333,31.5361765 Z M40.056,31.5361765 C40.056,30.7108824 39.3973333,30.0411765 38.5826667,30.0425294 C37.7626667,30.0425294 37.1053333,30.7108824 37.1053333,31.5361765 C37.1053333,32.3628235 37.7626667,33.0392941 38.5826667,33.0392941 C39.3973333,33.0392941 40.056,32.3628235 40.056,31.5361765 Z" id="Combined-Shape"></path>
                    <path d="M35.5213333,23.1925882 C36.4466667,22.8462353 37.3933333,22.6784706 38.328,22.6527647 C35.7813333,21.4946471 32.8986667,20.9088235 29.7053333,20.9088235 C26.536,20.9088235 23.612,21.5095294 21.0666667,22.6121765 C25.6733333,22.7055294 29.4186667,26.3665882 29.7413333,30.9801176 C29.82,29.9207647 30.0746667,28.8735882 30.5253333,27.8818824 C31.5186667,25.6901176 33.2946667,24.026 35.5213333,23.1925882 L35.5213333,23.1925882 Z" id="Shape"></path>
                </g>
            </g>
        </g>
    </g>
</svg>