<?xml version="1.0" encoding="UTF-8"?>
<svg width="60px" height="60px" viewBox="0 0 60 60" version="1.1" xmlns="http://www.w3.org/2000/svg" xmlns:xlink="http://www.w3.org/1999/xlink">
    <!-- Generator: Sketch 42 (36781) - http://www.bohemiancoding.com/sketch -->
    <title>Allo_White</title>
    <desc>Created with Sketch.</desc>
    <defs></defs>
    <g id="Page-1" stroke="none" stroke-width="1" fill="none" fill-rule="evenodd" opacity="0.5">
        <g id="Social_icons_white" transform="translate(-460.000000, -969.000000)" fill="#FFFFFF">
            <g id="White" transform="translate(60.000000, 169.000000)">
                <g id="Allo" transform="translate(400.000000, 800.000000)">
                    <path d="M30,60 C13.4314575,60 0,46.5685425 0,30 C0,13.4314575 13.4314575,0 30,0 C46.5685425,0 60,13.4314575 60,30 C60,46.5685425 46.5685425,60 30,60 Z M48,45.3320153 L48,29.1017752 L47.9777741,29.1017752 C47.4443518,18.4298364 37.7093949,10.2702499 26.5964304,12.3157049 C19.4619071,13.627464 13.7942952,19.1635322 12.3718358,26.278158 C10.0603392,37.839425 18.8395811,48 29.9969975,48 L45.3328885,48 C46.7997998,48 48,46.7994069 48,45.3320153 Z" id="Combined-Shape"></path>
                    <g transform="translate(21.000000, 21.000000)" id="Combined-Shape">
                        <path d="M17.3278383,17.9140126 C17.3278383,17.9140126 18,18.3141464 18,17.3880972 L18,8.84445529 C17.9199054,3.94735785 13.9212191,0 9,0 C4.02943725,0 0,4.02691273 0,8.99436132 C0,13.9618099 4.02943725,17.9887226 9,17.9887226 C11.2818581,17.9887226 13.3653746,17.1400536 14.9517567,15.7413213 L17.3278383,17.9140126 Z"></path>
                    </g>
                </g>
            </g>
        </g>
    </g>
</svg>