<?xml version="1.0" encoding="UTF-8"?>
<svg width="60px" height="60px" viewBox="0 0 60 60" version="1.1" xmlns="http://www.w3.org/2000/svg" xmlns:xlink="http://www.w3.org/1999/xlink">
    <!-- Generator: Sketch 42 (36781) - http://www.bohemiancoding.com/sketch -->
    <title>BuzzFeed_White</title>
    <desc>Created with Sketch.</desc>
    <defs></defs>
    <g id="Page-1" stroke="none" stroke-width="1" fill="none" fill-rule="evenodd" opacity="0.5">
        <g id="Social_icons_white" transform="translate(-660.000000, -1169.000000)" fill="#FFFFFF">
            <g id="White" transform="translate(60.000000, 169.000000)">
                <g id="BuzzFeed" transform="translate(600.000000, 1000.000000)">
                    <path d="M60,30 C60,46.5675 46.5675,60 30,60 C13.4325,60 0,46.5675 0,30 C0,13.4325 13.4325,0 30,0 C46.5675,0 60,13.4325 60,30 Z M49,29.3169768 L46.5715786,12 L30.4330054,18.5457948 L36.8280966,22.2509616 L30.7831153,32.7676474 L20.3170662,26.6971619 L10,44.6466369 L15.7805367,48 L22.7603858,35.8552864 L33.2264349,41.9257719 L42.6049088,25.6080674 L49,29.3132342 L49,29.3169768 Z" id="Combined-Shape"></path>
                </g>
            </g>
        </g>
    </g>
</svg>