<?xml version="1.0" encoding="UTF-8"?>
<svg width="60px" height="60px" viewBox="0 0 60 60" version="1.1" xmlns="http://www.w3.org/2000/svg" xmlns:xlink="http://www.w3.org/1999/xlink">
    <!-- Generator: Sketch 42 (36781) - http://www.bohemiancoding.com/sketch -->
    <title>Fancy_White</title>
    <desc>Created with Sketch.</desc>
    <defs></defs>
    <g id="Page-1" stroke="none" stroke-width="1" fill="none" fill-rule="evenodd" opacity="0.5">
        <g id="Social_icons_white" transform="translate(-260.000000, -869.000000)" fill="#FFFFFF">
            <g id="White" transform="translate(60.000000, 169.000000)">
                <g id="Fancy" transform="translate(200.000000, 700.000000)">
                    <path d="M30,60 C13.4314575,60 0,46.5685425 0,30 C0,13.4314575 13.4314575,0 30,0 C46.5685425,0 60,13.4314575 60,30 C60,46.5685425 46.5685425,60 30,60 Z M39.0224768,37.8207073 C40.1146093,37.8207073 41,36.9314634 41,35.8344878 L41,22.9241707 C41,22.8820976 40.9962848,22.8409756 40.9937351,22.7996341 C40.8616623,16.8130976 35.9920861,12 30,12 C24.0079139,12 19.1383377,16.8130976 19.0062649,22.7996341 C19.0037152,22.8409756 19,22.8820976 19,22.9241707 L19,35.8344878 C19,36.9314634 19.8853907,37.8207073 20.9775232,37.8207073 L27.1572649,37.8207073 L27.1572649,45.1448049 C27.1572649,46.7217073 28.4299868,48 30,48 C31.5699404,48 32.8426623,46.7217073 32.8426623,45.1448049 L32.8426623,37.8207073 L39.0224768,37.8207073 Z" id="Combined-Shape"></path>
                </g>
            </g>
        </g>
    </g>
</svg>