<?xml version="1.0" encoding="UTF-8"?>
<svg width="60px" height="60px" viewBox="0 0 60 60" version="1.1" xmlns="http://www.w3.org/2000/svg" xmlns:xlink="http://www.w3.org/1999/xlink">
    <!-- Generator: Sketch 42 (36781) - http://www.bohemiancoding.com/sketch -->
    <title>Share_White</title>
    <desc>Created with Sketch.</desc>
    <defs></defs>
    <g id="Page-1" stroke="none" stroke-width="1" fill="none" fill-rule="evenodd" opacity="0.5">
        <g id="Social_icons_white" transform="translate(-560.000000, -669.000000)" fill="#FFFFFF">
            <g id="White" transform="translate(60.000000, 169.000000)">
                <g id="Share" transform="translate(500.000000, 500.000000)">
                    <path d="M30,60 C13.4314575,60 0,46.5685425 0,30 C0,13.4314575 13.4314575,0 30,0 C46.5685425,0 60,13.4314575 60,30 C60,46.5685425 46.5685425,60 30,60 Z M20.5798982,26.2771083 L20.5798982,26.2771083 C19.4636017,25.0805747 17.8784043,24.3333333 16.12,24.3333333 C12.7400173,24.3333333 10,27.094244 10,30.5 C10,33.905756 12.7400173,36.6666667 16.12,36.6666667 C17.8784043,36.6666667 19.4636017,35.9194253 20.5798982,34.7228917 L34.0230155,41.0393202 C33.8519771,41.6070022 33.76,42.2093447 33.76,42.8333333 C33.76,46.2390893 36.5000173,49 39.88,49 C43.2599827,49 46,46.2390893 46,42.8333333 C46,39.4275774 43.2599827,36.6666667 39.88,36.6666667 C38.4426477,36.6666667 37.1210275,37.1659532 36.0766412,38.0017944 L22.1654369,31.4654289 C22.2145178,31.1508816 22.24,30.8284393 22.24,30.5 C22.24,30.1715607 22.2145178,29.8491184 22.1654369,29.5345711 L36.0766409,22.9982065 C37.1210275,23.8340468 38.4426477,24.3333333 39.88,24.3333333 C43.2599827,24.3333333 46,21.5724226 46,18.1666667 C46,14.7609107 43.2599827,12 39.88,12 C36.5000173,12 33.76,14.7609107 33.76,18.1666667 C33.76,18.7906553 33.8519771,19.3929978 34.0230155,19.9606798 L20.5798982,26.2771083 Z" id="Combined-Shape"></path>
                </g>
            </g>
        </g>
    </g>
</svg>