<?xml version="1.0" encoding="UTF-8"?>
<svg width="60px" height="60px" viewBox="0 0 60 60" version="1.1" xmlns="http://www.w3.org/2000/svg" xmlns:xlink="http://www.w3.org/1999/xlink">
    <!-- Generator: Sketch 42 (36781) - http://www.bohemiancoding.com/sketch -->
    <title>Sketch_White</title>
    <desc>Created with Sketch.</desc>
    <defs></defs>
    <g id="Page-1" stroke="none" stroke-width="1" fill="none" fill-rule="evenodd" opacity="0.5">
        <g id="Social_icons_white" transform="translate(-360.000000, -969.000000)" fill="#FFFFFF">
            <g id="White" transform="translate(60.000000, 169.000000)">
                <g id="Sketch" transform="translate(300.000000, 800.000000)">
                    <path d="M30,60 C13.4314575,60 0,46.5685425 0,30 C0,13.4314575 13.4314575,0 30,0 C46.5685425,0 60,13.4314575 60,30 C60,46.5685425 46.5685425,60 30,60 Z M36.8605462,16 L23.6241135,16 L17.2789858,18.8605461 L12,24.7245603 L30.2553192,49 L48.5106384,24.7245603 L43.244681,18.8085107 L36.8605462,16 Z" id="Combined-Shape"></path>
                    <polygon id="Shape" points="32.9028085 44.9512199 41.3470639 31.0552554 44.8963973 28.0627093 32.9028085 44.9512199"></polygon>
                    <polygon id="Shape" points="21.5677376 31.8368794 38.6788228 31.8368794 30.2553192 47.3617023 21.5677376 31.8368794"></polygon>
                    <polygon id="Shape" points="15.6018369 28.0627093 19.1511702 31.0552554 27.5954256 44.9512199 15.6018369 28.0627093"></polygon>
                    <polygon id="Shape" points="17.5786383 20.3167589 23.0259788 23.0472554 19.1252695 29.0804044 13.5088723 24.8819929 17.5786383 20.3167589"></polygon>
                    <polygon id="Shape" points="24.8064964 16.9506028 35.8025958 16.9506028 41.2163121 19.3380709 35.7794255 21.7062695 24.7833264 21.7062695 19.4012837 19.3400213 24.8064964 16.9506028"></polygon>
                    <polygon id="Shape" points="39.0969008 29.8605461 21.0756241 29.8605461 24.6622482 23.4893617 35.4042554 23.5153405 39.0969008 29.8605461"></polygon>
                    <polygon id="Shape" points="46.9893618 24.8819929 41.2163121 29.2019504 37.1108157 23.0505319 42.9195959 20.3167589 46.9893618 24.8819929"></polygon>
                </g>
            </g>
        </g>
    </g>
</svg>