<?xml version="1.0" encoding="UTF-8"?>
<svg width="60px" height="60px" viewBox="0 0 60 60" version="1.1" xmlns="http://www.w3.org/2000/svg" xmlns:xlink="http://www.w3.org/1999/xlink">
    <!-- Generator: Sketch 42 (36781) - http://www.bohemiancoding.com/sketch -->
    <title>YandexBrowser_White</title>
    <desc>Created with Sketch.</desc>
    <defs></defs>
    <g id="Page-1" stroke="none" stroke-width="1" fill="none" fill-rule="evenodd" opacity="0.5">
        <g id="Social_icons_white" transform="translate(-160.000000, -1269.000000)" fill="#FFFFFF">
            <g id="White" transform="translate(60.000000, 169.000000)">
                <g id="YandexBrowser" transform="translate(100.000000, 1100.000000)">
                    <path d="M0,30 C0,13.4314567 13.4314567,0 30,0 C46.5685433,0 60,13.4314567 60,30 C60,46.5685433 46.5685433,60 30,60 C13.4314567,60 0,46.5685433 0,30 Z M30,47 C39.9411255,47 48,38.9411255 48,29 C48,19.0588745 39.9411255,11 30,11 C20.0588745,11 12,19.0588745 12,29 C12,38.9411255 20.0588745,47 30,47 Z" id="Combined-Shape"></path>
                    <path d="M26.3205882,47.7109244 C24.010084,46.3193277 22.5352941,43.260084 21.892437,40.7567227 C21.287395,38.4084034 21.007563,35.4096639 21.0907563,31.3823529 C17.9218487,28.5273109 15.1386555,25.7063025 13.947479,23.0403361 C12.8054622,20.4802521 13.3651261,16.9861345 15.6756303,15.2201681 C16.5415966,14.5584034 17.7252101,14.1197479 19.347479,14.1159664 C19.1584034,17.7802521 21.8243697,20.1701681 25.360084,23.1310924 C27.6781513,20.6390756 30.6012605,18.1810924 33.5394958,16.4794118 C35.8310924,15.1521008 38.0848739,14.289916 40.0021008,14.0857143 C42.0063025,13.8701681 44.0521008,14.5130252 45.3680672,16.1012605 C46.2226891,17.1336134 46.6878151,18.6084034 46.0147059,20.6504202 C44.3584034,20.8848739 42.9289916,21.2516807 41.6773109,21.7168067 C39.744958,22.4390756 38.4176471,23.5886555 37.0298319,24.7004202 C34.4886555,26.7386555 32.3445378,28.8033613 30.5558824,30.9172269 C30.4878151,34.3205882 30.5067227,39.0247899 31.4445378,42.3336134 C31.9588235,44.1487395 32.9117647,45.6197479 34.7117647,46.4365546 C31.8831933,49.3331933 28.5516807,49.0533613 26.3205882,47.7109244 Z" id="Shape"></path>
                </g>
            </g>
        </g>
    </g>
</svg>