<?xml version="1.0" encoding="UTF-8"?>
<svg width="30px" height="33px" viewBox="0 0 30 33" version="1.1" xmlns="http://www.w3.org/2000/svg" xmlns:xlink="http://www.w3.org/1999/xlink">
    <!-- Generator: Sketch 42 (36781) - http://www.bohemiancoding.com/sketch -->
    <title>Airbnb_Color</title>
    <desc>Created with Sketch.</desc>
    <defs></defs>
    <g id="Page-1" stroke="none" stroke-width="1" fill="none" fill-rule="evenodd">
        <g id="Social_icons_no_circle" transform="translate(-475.000000, -482.000000)" fill-rule="nonzero" fill="#FF7977">
            <g id="Color" transform="translate(71.000000, 182.000000)">
                <g id="Airbnb" transform="translate(404.000000, 300.000000)">
                    <path d="M29.9989727,25.2743364 C29.9886906,24.3335326 29.7847155,23.3729452 29.4144047,22.4139104 C29.2311601,21.9377189 29.0692671,21.5629076 28.7026917,20.7450205 C28.6919813,20.7211241 28.6919813,20.7211241 28.68128,20.6972466 C28.6303103,20.5834964 28.6303103,20.5834964 28.579644,20.4701342 C26.3302599,15.4768604 23.9644111,10.5266361 21.4828557,5.61945027 C21.4200715,5.49612721 21.3700524,5.39745035 21.2594534,5.17893937 C21.2571891,5.17446574 21.2571891,5.17446574 21.2549246,5.16999173 C20.8489494,4.36790512 20.6618762,4.00542889 20.418427,3.55963858 C19.9725278,2.74919259 19.5181185,2.11581536 18.9691875,1.59762867 C18.0033307,0.65981364 16.6960794,0.0874169951 15.337953,0.00130233235 L14.7469336,0 C13.320343,0.0709090787 11.96968,0.666172689 10.9762744,1.65232638 C10.4560132,2.15416526 10.0196889,2.76893135 9.58426001,3.55932418 C9.33984069,4.00535141 9.13881386,4.39429756 8.75553547,5.15245938 C8.73290038,5.19723659 8.73290038,5.19723659 8.71028738,5.241974 C8.62272617,5.41518874 8.58463256,5.49046651 8.53529135,5.5876837 C6.88394878,8.85108932 5.27224731,12.1597792 3.69915471,15.514218 C2.5486815,17.9779626 1.73595268,19.7521621 0.954249829,21.5246116 C0.471684853,22.6237606 0.198434976,23.4458868 0.0789036195,24.3188994 C-0.174156987,26.0030877 0.18730984,27.779853 1.07960602,29.2405409 C1.84799123,30.5081714 3.00049282,31.5253534 4.34184385,32.1140247 C5.38698207,32.5741901 6.53897561,32.7822193 7.67314333,32.7140434 C9.10628614,32.6365949 10.5454645,32.1333621 11.8789382,31.2917471 C13.0991331,30.5291228 14.1961495,29.5413281 15.4829803,28.1351086 L14.521375,28.1340524 C15.7003932,29.4281309 16.7237187,30.366673 17.8466648,31.1128883 C19.1653714,31.9964525 20.5796547,32.5507427 22.006413,32.6880133 C23.6651415,32.8644873 25.3779023,32.4417693 26.76393,31.5055561 C27.9841117,30.6871292 28.9477625,29.4806519 29.4893055,28.0952359 C29.8408984,27.1988136 30.015549,26.2324176 29.9989138,25.2701607 L29.9989727,25.2743364 L29.9989727,25.2743364 Z M26.6225957,26.6326981 C26.3361183,27.6396447 25.6447434,28.5222207 24.7473131,29.0278076 C23.9564228,29.4783093 23.0011943,29.6408333 22.0893701,29.4856937 C21.003357,29.3135156 19.9354691,28.7523197 18.8243499,27.8406732 C18.1714998,27.3064037 17.5458203,26.6825459 16.790268,25.8382231 L16.8195007,26.67788 C18.0638923,25.0750253 18.9609992,23.7166878 19.654304,22.2974033 C20.4309757,20.7019904 20.8690146,19.2122225 20.9152263,17.732816 C20.9461084,16.6217184 20.7279118,15.5511575 20.2543384,14.6319514 C19.6149431,13.3654633 18.4661702,12.3684939 17.1134979,11.8836901 C15.8889344,11.4381916 14.5238059,11.3955181 13.2645751,11.7610908 C12.0537927,12.1099833 10.9715264,12.8499994 10.2318362,13.8527649 C9.58767904,14.7177594 9.20113115,15.7927711 9.11255274,16.9145994 C8.99440844,18.3159687 9.28496843,19.7740136 9.91000051,21.3175414 C10.6496825,23.1128384 11.725821,24.8285475 13.1888223,26.6677261 L13.2014752,25.8355584 C12.6669857,26.4669605 12.0720458,27.0677534 11.4221172,27.6359521 C10.3142871,28.590674 9.26401933,29.1972677 8.18463017,29.4350324 C7.23553765,29.6519502 6.23600148,29.5363442 5.4045703,29.1079811 C4.41386634,28.6051634 3.65017714,27.6542082 3.36358551,26.5669578 C3.14801616,25.7810739 3.18454642,24.9099957 3.45660856,24.0931001 C3.61667179,23.6150131 3.77809518,23.2295219 4.15831952,22.3813878 C4.17428967,22.3457653 4.17428967,22.3457653 4.19028476,22.3100798 C4.25968369,22.15523 4.30450241,22.0547692 4.35045589,21.9507269 C6.55221922,17.0614821 8.88342936,12.1819712 11.3397405,7.31715465 C11.3919302,7.21406748 11.4335869,7.13157196 11.5273174,6.9457892 C11.5320477,6.93641317 11.5320477,6.93641317 11.5367774,6.92703848 C11.9755157,6.05741082 12.1791999,5.66160455 12.4386266,5.18538861 C12.7865132,4.5551573 13.0929814,4.14562976 13.4625777,3.85960683 C13.9056139,3.50670541 14.4615578,3.31760598 15.0094098,3.33025879 C15.5953063,3.32361531 16.1680828,3.53618495 16.6111945,3.91534329 C17.0067225,4.24985447 17.3093078,4.69106183 17.7137044,5.45982003 C18.2951051,6.57198624 18.8010711,7.57549986 19.7279089,9.4399493 C19.8106845,9.60647599 19.8106845,9.60647599 19.8934711,9.77304342 C19.9026131,9.79143679 19.9026131,9.79143679 19.9117554,9.80983054 C21.9887001,13.9977178 23.9737878,18.2021369 25.8655114,22.422325 C25.8912028,22.4813059 25.9111713,22.5267676 25.959399,22.6362378 C25.9771308,22.6764489 25.9771308,22.6764489 25.9948146,22.7165341 C26.3504255,23.522655 26.4962495,23.8888035 26.6225899,24.342735 C26.8305447,25.0969676 26.8320826,25.9018064 26.6229488,26.6314616 L26.6225957,26.6326981 L26.6225957,26.6326981 Z M15.5090529,24.2658055 C15.2361184,23.9385813 15.0154011,23.6338853 14.588893,23.0131527 C14.5608347,22.9723112 14.5608347,22.9723112 14.532704,22.9313596 C14.5163047,22.9074894 14.5163047,22.9074894 14.4998765,22.8835857 C13.9158814,22.0111634 13.4423901,21.1753372 13.0721018,20.3400674 C12.7195569,19.5347906 12.4977463,18.807579 12.4092188,18.104018 C12.3338647,17.4525766 12.3755517,16.8919834 12.5532271,16.4240066 C12.7216915,15.9591953 13.0419528,15.5578302 13.4498123,15.2931627 C14.4696506,14.6228896 15.9242453,14.7091401 16.8219273,15.498959 C17.250933,15.8711725 17.5326796,16.4420549 17.6037909,17.0657124 C17.6933139,17.8630967 17.5439596,18.7324095 17.1848329,19.7093102 C16.6331966,21.1840146 15.7769375,22.5991856 14.4907818,24.2885544 L15.0089834,24.685953 L15.5090529,24.2658055 L15.5090529,24.2658055 Z"></path>
                </g>
            </g>
        </g>
    </g>
</svg>