<?xml version="1.0" encoding="UTF-8"?>
<svg width="30px" height="36px" viewBox="0 0 30 36" version="1.1" xmlns="http://www.w3.org/2000/svg" xmlns:xlink="http://www.w3.org/1999/xlink">
    <!-- Generator: Sketch 42 (36781) - http://www.bohemiancoding.com/sketch -->
    <title>Apple_Color</title>
    <desc>Created with Sketch.</desc>
    <defs></defs>
    <g id="Page-1" stroke="none" stroke-width="1" fill="none" fill-rule="evenodd">
        <g id="Social_icons_no_circle" transform="translate(-75.000000, -481.000000)" fill="#0B0B0A">
            <g id="Color" transform="translate(71.000000, 182.000000)">
                <g id="Apple" transform="translate(4.000000, 299.000000)">
                    <path d="M19.8839526,5.70182853 C21.0293979,4.22319426 21.8977193,2.13328101 21.5836456,0 C19.71152,0.130103295 17.5232678,1.32787966 16.2464453,2.8891192 C15.0825251,4.30373439 14.1259345,6.40810356 14.4995386,8.45051878 C16.5461496,8.51453786 18.6584493,7.28784965 19.8839526,5.70182853 L19.8839526,5.70182853 Z M30,25.7687129 C29.180945,27.5942893 28.7868133,28.4100163 27.7316899,30.0270144 C26.2598542,32.2842034 24.1845044,35.0948476 21.6103316,35.1154989 C19.3255993,35.1402805 18.7364545,33.6182784 15.63472,33.6368646 C12.5329855,33.6533857 11.8863632,35.1444107 9.59752534,35.1216943 C7.02540533,35.0989778 5.05885228,32.5629961 3.58701665,30.3058072 C-0.530838683,23.9988951 -0.963973018,16.5953981 1.57530268,12.657192 C3.38173972,9.86100371 6.23098359,8.22541943 8.90779483,8.22541943 C11.6318198,8.22541943 13.3458822,9.72883528 15.6018757,9.72883528 C17.7901278,9.72883528 19.1223752,8.22128917 22.2733761,8.22128917 C24.6586941,8.22128917 27.1856532,9.52851751 28.9838792,11.7836413 C23.0883256,15.0341585 24.0428633,23.5032635 30,25.7687129 L30,25.7687129 Z"></path>
                </g>
            </g>
        </g>
    </g>
</svg>