<?xml version="1.0" encoding="UTF-8"?>
<svg width="32px" height="20px" viewBox="0 0 32 20" version="1.1" xmlns="http://www.w3.org/2000/svg" xmlns:xlink="http://www.w3.org/1999/xlink">
    <!-- Generator: Sketch 42 (36781) - http://www.bohemiancoding.com/sketch -->
    <title>Behance_Color</title>
    <desc>Created with Sketch.</desc>
    <defs></defs>
    <g id="Page-1" stroke="none" stroke-width="1" fill="none" fill-rule="evenodd">
        <g id="Social_icons_no_circle" transform="translate(-374.000000, -389.000000)" fill="#1769FF">
            <g id="Color" transform="translate(71.000000, 182.000000)">
                <g id="Behance" transform="translate(303.000000, 207.000000)">
                    <path d="M20.4478451,3.33735499 L28.921998,3.33735499 L28.921998,0.909512761 L20.4478451,0.909512761 L20.4478451,3.33735499 L20.4478451,3.33735499 Z M22.4553764,8.63480278 C21.9153937,9.18422274 21.5748472,9.92853828 21.4356182,10.8677494 L28.026417,10.8677494 C27.9568025,9.86542923 27.6143745,9.10812065 27.0085403,8.58654292 C26.3951802,8.06867749 25.6407096,7.81067285 24.7376028,7.81067285 C23.759237,7.81067285 22.9953591,8.08538283 22.4553764,8.63480278 L22.4553764,8.63480278 L22.4553764,8.63480278 Z M28.1750533,5.37540603 C29.196693,5.82459397 30.0377113,6.53735499 30.6999897,7.5099768 C31.3039424,8.3675174 31.6915258,9.36241299 31.8683842,10.4928074 C31.9718652,11.1535963 32.0132576,12.1113689 31.9963244,13.3568445 L21.3415446,13.3568445 C21.4055146,14.8027842 21.9097493,15.8180974 22.8730633,16.3990719 C23.4563199,16.7610209 24.1581092,16.9429234 24.9821942,16.9429234 C25.8495531,16.9429234 26.5588683,16.7220418 27.1026139,16.2821346 C27.4017681,16.0426914 27.6651742,15.712297 27.890951,15.2890951 L31.7950068,15.2890951 C31.6915258,16.1429234 31.2173947,17.0134571 30.3782578,17.8969838 C29.0687529,19.2983759 27.234317,20 24.8768317,20 C22.9295075,20 21.211723,19.4097448 19.727241,18.225522 C18.2352332,17.0431555 17.493933,15.1164733 17.493933,12.4510441 C17.493933,9.95081206 18.1656187,8.03341067 19.5071087,6.69883991 C20.8523617,5.36798144 22.5927239,4.69791183 24.7357213,4.69791183 C26.0094783,4.69791183 27.1552952,4.92436195 28.1750533,5.37540603 L28.1750533,5.37540603 L28.1750533,5.37540603 Z M3.94168526,10.9197216 L3.94168526,16.1225058 L8.74320353,16.1225058 C9.60115507,16.1225058 10.2709593,16.0074246 10.7469719,15.7791183 C11.6143308,15.3522042 12.0470696,14.5429234 12.0470696,13.3438515 C12.0470696,12.3266821 11.6293826,11.6306265 10.7883643,11.250116 C10.3179962,11.0385151 9.65759925,10.9271462 8.81093655,10.9197216 L3.94168526,10.9197216 L3.94168526,10.9197216 Z M3.94168526,3.387471 L3.94168526,7.69187935 L8.75072942,7.69187935 C9.60679949,7.69187935 10.3048259,7.53039443 10.842927,7.20742459 C11.3772653,6.88445476 11.6463159,6.31276102 11.6463159,5.49605568 C11.6463159,4.58468677 11.292599,3.98515081 10.5851653,3.69187935 C9.97180519,3.48955916 9.1928755,3.387471 8.24649474,3.387471 L3.94168526,3.387471 L3.94168526,3.387471 Z M14.6811313,2.07888631 C15.285084,2.90858469 15.5880011,3.89976798 15.5880011,5.05614849 C15.5880011,6.24593968 15.285084,7.20556845 14.6736054,7.92946636 C14.3311774,8.33410673 13.8288242,8.70533643 13.1646643,9.03944316 C14.1731337,9.40324826 14.9332486,9.97679814 15.4506536,10.761949 C15.9624142,11.5452436 16.220176,12.4993039 16.220176,13.6204176 C16.220176,14.7767981 15.9266662,15.8143852 15.3377653,16.7313225 C14.9652337,17.3382831 14.4986285,17.85058 13.9379496,18.2663573 C13.3076562,18.7433875 12.5644745,19.0682135 11.7046415,19.2464037 C10.8448085,19.4227378 9.91536101,19.5081206 8.9106546,19.5081206 L0,19.5081206 L0,0 L9.55599973,0 C11.9680477,0.0352668213 13.6745434,0.727610209 14.6811313,2.07888631 L14.6811313,2.07888631 L14.6811313,2.07888631 Z"></path>
                </g>
            </g>
        </g>
    </g>
</svg>