<?xml version="1.0" encoding="UTF-8"?>
<svg width="36px" height="36px" viewBox="0 0 36 36" version="1.1" xmlns="http://www.w3.org/2000/svg" xmlns:xlink="http://www.w3.org/1999/xlink">
    <!-- Generator: Sketch 42 (36781) - http://www.bohemiancoding.com/sketch -->
    <title>Blogger_Color</title>
    <desc>Created with Sketch.</desc>
    <defs></defs>
    <g id="Page-1" stroke="none" stroke-width="1" fill="none" fill-rule="evenodd">
        <g id="Social_icons_no_circle" transform="translate(-672.000000, -881.000000)" fill="#F57D00">
            <g id="Color" transform="translate(71.000000, 182.000000)">
                <g id="Blogger" transform="translate(601.000000, 699.000000)">
                    <path d="M19.3260183,0 L19.3260183,1.23336664e-05 L19.4041899,1.23336664e-05 L19.4901786,1.23336664e-05 C24.9636713,0.149210229 28.9616802,4.59672293 29.1365494,9.28109629 L29.1521837,9.28109629 C29.166117,9.41695656 29.1641408,9.5663814 29.1756226,9.70506607 C29.2848902,11.0257181 29.2702665,12.466569 28.9254736,13.9216383 C29.0954374,13.9279284 29.2600004,13.9347613 29.4257716,13.9447516 C30.8966978,14.0333073 32.6082948,14.2325207 34.100431,15.6406307 C35.5925673,17.0487407 35.8341962,18.8176154 35.9218284,20.1038762 C36.0094556,21.390137 35.9675907,22.6575791 36,24.3358655 L36,24.3898253 L36,24.4437851 C35.9649541,27.6760296 34.9850029,30.6949731 32.8731375,32.8383868 C30.7612721,34.9818004 27.745766,35.9731928 24.6651235,35.9988888 L24.6494892,35.9988888 L24.6338549,35.9988888 L11.5557526,35.9988888 C11.5399256,35.9990886 11.5246591,35.9987235 11.5088496,35.9988888 C8.21346428,36.0330999 5.02149302,35.2827024 2.76926901,33.0079747 C0.554674916,30.7712519 -0.149189332,27.5947112 0.0254471879,24.2587801 L0.0176175242,24.2587801 C0.0177926285,24.2272996 0.0249468899,24.1977186 0.0254471879,24.1662776 C0.0279486779,24.1245429 0.0227705936,24.0847224 0.0254471879,24.0429409 L0.0410815003,24.0429409 L0.275596186,9.72047082 L0.28342585,9.72047082 C0.350918551,7.86356828 0.774675957,5.83813605 2.12827471,3.96989887 C3.85354735,1.5886749 7.09017521,0.122115631 10.7975009,0.131045205 L10.8834897,0.131045205 L19.3260183,0 Z M11.1725836,21.0003013 L11.1725836,21.0003013 C10.0445027,20.9850019 8.99521838,21.5533716 8.42652216,22.4877704 C7.85782595,23.4221692 7.85782595,24.5778308 8.42652216,25.5122296 C8.99521838,26.4466284 10.0445027,27.0149981 11.1725836,26.9996987 L25.8274164,26.9996987 C26.9554973,27.0149981 28.0047816,26.4466284 28.5734778,25.5122296 C29.1421741,24.5778308 29.1421741,23.4221692 28.5734778,22.4877704 C28.0047816,21.5533716 26.9554973,20.9850019 25.8274164,21.0003013 L11.1725836,21.0003013 Z M12.2715491,8.00033811 L12.2715491,8.00033811 C10.4916257,7.9759457 9.02706893,9.27443554 9.00037008,10.9005963 C8.97367123,12.5267571 10.3949406,13.8647949 12.174864,13.8891873 L19.7243584,13.9996032 C21.5042817,14.0260282 22.970642,12.7291863 22.9995657,11.1030255 C23.0284895,9.4768648 21.6090239,8.13717925 19.8291006,8.11075403 L12.2715491,8.00033811 Z" id="Combined-Shape"></path>
                </g>
            </g>
        </g>
    </g>
</svg>