<?xml version="1.0" encoding="UTF-8"?>
<svg width="36px" height="36px" viewBox="0 0 36 36" version="1.1" xmlns="http://www.w3.org/2000/svg" xmlns:xlink="http://www.w3.org/1999/xlink">
    <!-- Generator: Sketch 42 (36781) - http://www.bohemiancoding.com/sketch -->
    <title>Creativemarket_Color</title>
    <desc>Created with Sketch.</desc>
    <defs></defs>
    <g id="Page-1" stroke="none" stroke-width="1" fill="none" fill-rule="evenodd">
        <g id="Social_icons_no_circle" transform="translate(-171.000000, -983.000000)" fill="#8BA651">
            <g id="Color" transform="translate(71.000000, 182.000000)">
                <g id="Creativemarket" transform="translate(100.000000, 801.000000)">
                    <path d="M35.9998767,14.0103664 C35.9998767,12.6323999 35.4066771,4.44087315 35.4066771,4.44087315 C35.4066771,3.14221956 34.9254784,2.2720583 34.3211294,1.67885867 C33.7302103,1.0767902 32.8597957,0.593310964 31.5613955,0.593310964 C31.5613955,0.593310964 23.3696153,0.000111340276 21.9896216,0.000111340276 C20.0100935,0.000111340276 18.6893944,-0.0571561159 16.2086493,2.42586956 C15.0022318,3.63000652 1.63129435,17.0029711 1.06672846,17.5655098 C0.504189729,18.1280486 -1.39855951,20.3475426 1.8469342,23.5927829 L6.98225396,28.7281027 L7.27239218,29.0182409 L12.4077119,34.1555878 C15.6552328,37.4031087 17.8747268,35.4960517 18.4372656,34.933513 C18.9998043,34.3707209 32.3727689,20.9977563 33.5769059,19.7936193 C36.0591713,17.3105936 35.9998767,15.9921752 35.9998767,14.0103664 L35.9998767,14.0103664 Z M21.7091125,18.4280692 L26.2907623,20.6039792 L24.6056801,23.6191361 L20.3678884,20.8518003 C20.2695708,20.786931 20.1580766,20.7534827 20.0463291,20.7534827 C19.9480115,20.7534827 19.8502007,20.7780621 19.760752,20.8292481 C19.5709585,20.9387151 19.4614915,21.1462462 19.477202,21.3646734 L19.8276485,26.3770962 L16.435692,26.3770962 L16.4199814,26.3770962 C16.433158,26.3345257 16.6989702,21.3623929 16.6989702,21.3623929 C16.7146808,21.1439657 16.6052138,20.9361811 16.4154203,20.8269675 C16.2233463,20.7175005 15.9892085,20.7266227 15.8085373,20.8492663 L11.688828,23.6477698 L9.8499345,20.722315 L14.4716209,18.4278158 C14.6702833,18.3343128 14.797488,18.1331165 14.797488,17.9124087 C14.797488,17.6914476 14.6702833,17.4905047 14.4716209,17.3970016 L9.88794388,15.2210917 L11.5727727,12.2064416 L15.8085373,14.9758045 C15.9892085,15.0964209 16.2233463,15.1095975 16.4154203,14.9981034 C16.6052138,14.8886364 16.7144274,14.6813586 16.6989702,14.4624246 L16.3508044,9.4500018 L19.7450414,9.4500018 L19.477202,14.4624246 C19.4614915,14.6811052 19.5709585,14.8886364 19.760752,14.9981034 C19.9525726,15.1095975 20.1892443,15.0964209 20.3678884,14.9758045 L24.4875977,12.177301 L26.3264912,15.1032626 L21.7091125,17.397255 C21.5104501,17.4910115 21.3832454,17.691701 21.3832454,17.9126621 C21.3832454,18.1336233 21.5104501,18.3345662 21.7091125,18.4280692 L21.7091125,18.4280692 Z M29.5463919,8.81575205 C28.3465627,8.81575205 27.3773236,7.84448586 27.3773236,6.64693719 C27.3773236,5.44938853 28.3463093,4.4804029 29.5463919,4.4804029 C30.7393794,4.4804029 31.7083651,5.44938853 31.7083651,6.64693719 C31.7083651,7.84448586 30.7393794,8.81575205 29.5463919,8.81575205 L29.5463919,8.81575205 Z" id="Shape"></path>
                </g>
            </g>
        </g>
    </g>
</svg>