<?xml version="1.0" encoding="UTF-8"?>
<svg width="32px" height="36px" viewBox="0 0 32 36" version="1.1" xmlns="http://www.w3.org/2000/svg" xmlns:xlink="http://www.w3.org/1999/xlink">
    <!-- Generator: Sketch 42 (36781) - http://www.bohemiancoding.com/sketch -->
    <title>HTML5_Color</title>
    <desc>Created with Sketch.</desc>
    <defs></defs>
    <g id="Page-1" stroke="none" stroke-width="1" fill="none" fill-rule="evenodd">
        <g id="Social_icons_no_circle" transform="translate(-274.000000, -1183.000000)">
            <g id="Color" transform="translate(71.000000, 182.000000)">
                <g id="HTML5" transform="translate(203.000000, 1001.000000)">
                    <polygon id="Shape" fill="#E44D26" points="2.89636747 32.4013127 1.77635684e-15 0 31.826087 0 28.9266486 32.3962371 15.8935653 36"></polygon>
                    <polygon id="Shape" fill="#F16529" points="15.9130435 33.1304348 26.4722173 30.2254357 28.9565217 2.60869565 15.9130435 2.60869565"></polygon>
                    <polygon id="Shape" fill="#EBEBEB" points="15.9130435 14.5535476 10.6817688 14.5535476 10.3204809 10.4900181 15.9130435 10.4900181 15.9130435 6.52173913 15.8993755 6.52173913 6 6.52173913 6.09463131 7.58636097 7.06627812 18.5217391 15.9130435 18.5217391"></polygon>
                    <polygon id="Shape" fill="#EBEBEB" points="15.9130435 25.0245477 15.8958418 25.0292454 11.5242001 23.8188304 11.2447379 20.6086957 9.12046269 20.6086957 7.30434783 20.6086957 7.85428228 26.9285405 15.8949774 29.2173913 15.9130435 29.2122504"></polygon>
                    <polygon id="Shape" fill="#FFFFFF" points="15.9130435 14.6086957 15.9130435 18.6238809 20.7498661 18.6238809 20.2939326 23.8313311 15.9130435 25.0400425 15.9130435 29.2173913 23.9655341 26.9360481 24.0246125 26.2576843 24.9476379 15.686898 25.0434783 14.6086957 23.9849962 14.6086957"></polygon>
                    <polygon id="Shape" fill="#FFFFFF" points="15.9130435 6.52173913 15.9130435 8.9520639 15.9130435 10.4252178 15.9130435 10.4347826 25.459034 10.4347826 25.459034 10.4347826 25.4717571 10.4347826 25.5511458 9.55525045 25.731448 7.57154223 25.826087 6.52173913"></polygon>
                </g>
            </g>
        </g>
    </g>
</svg>