<?xml version="1.0" encoding="UTF-8"?>
<svg width="36px" height="35px" viewBox="0 0 36 35" version="1.1" xmlns="http://www.w3.org/2000/svg" xmlns:xlink="http://www.w3.org/1999/xlink">
    <!-- Generator: Sketch 42 (36781) - http://www.bohemiancoding.com/sketch -->
    <title>IE_Color</title>
    <desc>Created with Sketch.</desc>
    <defs></defs>
    <g id="Page-1" stroke="none" stroke-width="1" fill="none" fill-rule="evenodd">
        <g id="Social_icons_no_circle" transform="translate(-571.000000, -1081.000000)" fill="#1EBBEE">
            <g id="Color" transform="translate(71.000000, 182.000000)">
                <g id="IE" transform="translate(500.000000, 899.000000)">
                    <path d="M35.8383333,18.2808962 C35.8383333,15.4795755 35.1071667,12.8478066 33.825,10.5609198 C39.2901667,-1.69122642 27.969,0.103349057 27.3386667,0.225518868 C24.9401667,0.690424528 22.7211667,1.43681604 20.6743333,2.3829717 C20.3725,2.36613208 20.0688333,2.35688679 19.7628333,2.35688679 C12.124,2.35688679 5.72983333,7.63462264 4.09333333,14.7097406 C8.1195,10.2355189 10.9371667,8.43021226 12.6245,7.70775943 C12.3551667,7.94615566 12.0915,8.1871934 11.8321667,8.43004717 C11.7458333,8.5107783 11.6626667,8.59266509 11.5775,8.67389151 C11.4065,8.83683962 11.2358333,8.99995283 11.0691667,9.16455189 C10.97,9.26245283 10.8735,9.36117925 10.7758333,9.45974057 C10.628,9.60882075 10.4805,9.75773585 10.3361667,9.90764151 C10.2336667,10.0141274 10.1336667,10.1209434 10.033,10.2275943 C9.89816667,10.370566 9.76416667,10.5137028 9.63266667,10.6573349 C9.5305,10.7689387 9.43,10.8805425 9.32966667,10.9924764 C9.205,11.1314858 9.0815,11.2704953 8.95966667,11.4098349 C8.85866667,11.5254009 8.7585,11.640967 8.6595,11.7566981 C8.544,11.8917453 8.43,12.0267925 8.31716667,12.1618396 C8.21733333,12.2813679 8.11783333,12.4007311 8.02016667,12.5200943 C7.9145,12.6491981 7.81116667,12.7781368 7.708,12.9069104 C7.608,13.0317217 7.508,13.1563679 7.41033333,13.2810142 C7.31733333,13.399717 7.227,13.5179245 7.136,13.6362972 C7.03333333,13.7700236 6.92983333,13.90375 6.82983333,14.036816 C6.75833333,14.1320755 6.68966667,14.2263443 6.6195,14.3212736 C5.98433333,15.1797642 5.404,16.0217453 4.87983333,16.8305425 C4.8785,16.8325236 4.87716667,16.8345047 4.876,16.8364858 C4.738,17.0494575 4.60483333,17.2592925 4.47433333,17.4673113 C4.46733333,17.4785377 4.46,17.4899292 4.453,17.5013208 C4.32233333,17.7101651 4.19616667,17.9153774 4.07316667,18.1184434 C4.06883333,18.1255425 4.06433333,18.1328066 4.06,18.1399057 C3.72933333,18.686533 3.42266667,19.2135142 3.1465,19.7092925 C1.69866667,22.3083726 0.993833333,24.1242453 0.963333333,24.2320519 C-3.60866667,40.423184 10.6606667,33.5858019 12.6518333,32.5651887 C14.7958333,33.6143632 17.2095,34.2049057 19.7628333,34.2049057 C26.7528333,34.2049057 32.7,29.7851651 34.9136667,23.6131132 L26.467,23.6131132 C25.2171667,25.7046934 22.811,27.1213679 20.0466667,27.1213679 C15.9965,27.1213679 12.7133333,24.0816509 12.7133333,20.3318632 L35.7066667,20.3318632 C35.7938333,19.6602594 35.839,18.9757783 35.839,18.2808962 L35.8383333,18.2808962 Z M32.8353333,2.61080189 C34.2196667,3.53632075 35.33,4.98981132 33.4231667,9.8846934 C31.5943333,6.97127358 28.8428333,4.68587264 25.5725,3.42966981 C27.0601667,2.71794811 30.7443333,1.21261792 32.8353333,2.61080189 L32.8353333,2.61080189 Z M3.41533333,32.5325 C2.28783333,31.3870755 2.0885,28.5973113 4.5765,23.5137264 C5.83216667,27.0898349 8.33783333,30.0862972 11.5765,31.9880189 C9.96583333,32.8661557 5.68983333,34.8433255 3.41533333,32.5325 L3.41533333,32.5325 Z M12.6771667,15.9768396 C12.8056667,12.3323821 16.0076667,9.41433962 19.9418333,9.41433962 C23.8758333,9.41433962 27.078,12.3323821 27.2065,15.9768396 L12.6771667,15.9768396 L12.6771667,15.9768396 Z" id="svg"></path>
                </g>
            </g>
        </g>
    </g>
</svg>