<?xml version="1.0" encoding="UTF-8"?>
<svg width="36px" height="31px" viewBox="0 0 36 31" version="1.1" xmlns="http://www.w3.org/2000/svg" xmlns:xlink="http://www.w3.org/1999/xlink">
    <!-- Generator: Sketch 42 (36781) - http://www.bohemiancoding.com/sketch -->
    <title>Invision_Color</title>
    <desc>Created with Sketch.</desc>
    <defs></defs>
    <g id="Page-1" stroke="none" stroke-width="1" fill="none" fill-rule="evenodd">
        <g id="Social_icons_no_circle" transform="translate(-72.000000, -684.000000)" fill="#FF3366">
            <g id="Color" transform="translate(71.000000, 182.000000)">
                <g id="Invision" transform="translate(1.000000, 502.000000)">
                    <path d="M29.7136816,30.5258302 C26.4276034,30.5258302 24.8565525,28.5743669 24.8565525,25.9064828 C24.8565525,25.1452737 24.9513191,24.3350473 25.1894853,23.5253977 L26.7613052,17.9059061 C26.9516075,17.2865587 26.9994714,16.7156519 26.9994714,16.1914556 C26.9994714,14.3824307 25.9041761,13.2865587 24.1420539,13.2865587 C21.9034072,13.2865587 20.4271229,14.8499207 19.6653371,17.9456966 L16.6172329,30.1283099 L11.2835792,30.1283099 L12.2408573,26.3293767 C10.6732664,28.9048008 8.49593926,30.521409 5.80979384,30.521409 C2.57138738,30.521409 1.0474314,28.6666346 1.0474314,25.8563122 C1.0474314,25.1431592 1.14296699,24.2987169 1.33326926,23.4890672 L3.76202605,13.5970013 L0,13.5970013 L1.14296699,9.3680619 L10.1913595,9.3680619 L6.61925129,23.5186698 C6.38108511,24.4242395 6.28593397,25.1660339 6.28593397,25.6890768 C6.28593397,26.595031 6.73189485,26.855303 7.42928541,27.0125426 C7.85390937,27.1076938 11.2382142,27.0634821 13.0808785,22.9679466 L15.4267865,13.5970013 L11.6168965,13.5970013 L12.7598635,9.3680619 L20.9034552,9.3680619 L19.8560238,14.13696 C21.2844442,11.4696526 24.1420539,8.92613773 26.9516075,8.92613773 C29.9518478,8.92613773 32.4284685,11.0588688 32.4284685,15.1544043 C32.4284685,16.2016435 32.2856456,17.3396127 31.9046566,18.625018 L30.3803162,24.0988034 C30.2380701,24.6714402 30.14215,25.1466193 30.14215,25.5750877 C30.14215,26.5271757 30.5235235,27.0029314 31.238022,27.0029314 C31.9521361,27.0029314 32.8571291,26.477774 33.904945,23.5742227 L36,24.3831035 C34.7618819,28.7169975 32.5236196,30.5258302 29.7136816,30.5258302 Z M8.04805613,0 C9.81037051,0 11.2864626,1.38094094 11.2864626,3.18996588 C11.2864626,5.00033639 9.81037051,6.38146956 8.04805613,6.38146956 C6.28593397,6.38146956 4.8098419,5.00033639 4.8098419,3.18996588 C4.8098419,1.38094094 6.28593397,0 8.04805613,0 Z" id="Combined-Shape"></path>
                </g>
            </g>
        </g>
    </g>
</svg>