<?xml version="1.0" encoding="UTF-8"?>
<svg width="37px" height="35px" viewBox="0 0 37 35" version="1.1" xmlns="http://www.w3.org/2000/svg" xmlns:xlink="http://www.w3.org/1999/xlink">
    <!-- Generator: Sketch 42 (36781) - http://www.bohemiancoding.com/sketch -->
    <title>Line_Color</title>
    <desc>Created with Sketch.</desc>
    <defs></defs>
    <g id="Page-1" stroke="none" stroke-width="1" fill="none" fill-rule="evenodd">
        <g id="Social_icons_no_circle" transform="translate(-372.000000, -1183.000000)">
            <g id="Color" transform="translate(71.000000, 182.000000)">
                <g id="Line" transform="translate(301.000000, 1001.000000)">
                    <path d="M37,14.9046801 C37,6.68619187 28.7012528,0 18.4998227,0 C8.29981117,0 0,6.68619187 0,14.9046801 C0,22.2725184 6.58154492,28.4428982 15.4718439,29.609725 C16.0743897,29.73859 16.8943343,30.004066 17.101803,30.5153008 C17.2883474,30.9797077 17.2238016,31.707126 17.1613837,32.1761101 C17.1613837,32.1761101 16.9443395,33.4721539 16.8975261,33.7481926 C16.8170212,34.2125995 16.5258557,35.5642735 18.4998227,34.7382701 C20.4744989,33.9122666 29.1541374,28.5101475 33.0353976,24.0748679 L33.0346883,24.0748679 C35.7158221,21.1560406 37,18.1939062 37,14.9046801" id="Fill-1" fill="#00B900"></path>
                    <path d="M14.6430077,11 L13.3573436,11 C13.1602249,11 13,11.1654011 13,11.3686081 L13,19.6313919 C13,19.8349624 13.1602249,20 13.3573436,20 L14.6430077,20 C14.8401265,20 15,19.8349624 15,19.6313919 L15,11.3686081 C15,11.1654011 14.8401265,11 14.6430077,11" id="Fill-2" fill="#FFFFFF"></path>
                    <path d="M23.6241909,11 L22.2707601,11 C22.0632513,11 21.894951,11.1654011 21.894951,11.3686081 L21.894951,16.2775668 L18.0421676,11.163947 C18.0332902,11.1508603 18.0233031,11.1385007 18.0129462,11.1265046 L18.0103569,11.1243235 C18.0029591,11.1159625 17.9955613,11.1086921 17.9877936,11.1014218 C17.9855743,11.0992406 17.9833549,11.0974231 17.9807657,11.0952419 C17.9744775,11.0894256 17.9678195,11.0839729 17.9607916,11.0788836 C17.9578324,11.0759754 17.9545034,11.0737943 17.9511744,11.0712497 C17.9445164,11.0668875 17.9382282,11.0621617 17.9315702,11.058163 C17.9278713,11.0556184 17.9241724,11.0534373 17.9201036,11.0516197 C17.9134455,11.047621 17.9067875,11.0436223 17.9001295,11.0403506 C17.8960607,11.038533 17.8923618,11.0363519 17.888293,11.0348978 C17.881265,11.0316261 17.8742371,11.0283545 17.8668393,11.0258098 C17.8624006,11.0243558 17.8587017,11.0229017 17.8546329,11.0214476 C17.8472351,11.018903 17.8398372,11.0163583 17.8320695,11.0145408 C17.8280007,11.0130867 17.823562,11.0123596 17.8191234,11.0109056 C17.8117255,11.0094515 17.8046976,11.0076339 17.7976697,11.0061798 C17.7924912,11.0054528 17.7869429,11.0047257 17.7817644,11.0043622 C17.7751063,11.0029082 17.7684483,11.0025446 17.7617903,11.0018176 C17.7555021,11.0010906 17.749214,11.0010906 17.7425559,11.000727 C17.7377474,11.000727 17.7340485,11 17.7292399,11 L16.376179,11 C16.1686702,11 16,11.1654011 16,11.3686081 L16,19.6313919 C16,19.8349624 16.1686702,20 16.376179,20 L17.7292399,20 C17.9371186,20 18.1054189,19.8349624 18.1054189,19.6313919 L18.1054189,14.7238872 L21.9630109,19.8440504 C21.9896431,19.8811293 22.0225633,19.9113014 22.0584428,19.9352936 C22.0595524,19.9360207 22.061032,19.9371112 22.0621417,19.9382018 C22.0699094,19.9429275 22.0776771,19.9476533 22.0854448,19.9520155 C22.0891437,19.9541966 22.0924727,19.9556507 22.0961716,19.9574683 C22.10172,19.96074 22.1080081,19.9636481 22.1139264,19.9661927 C22.1202145,19.9687374 22.1257629,19.971282 22.1324209,19.9738266 C22.1361198,19.9752807 22.1398188,19.9767348 22.1435177,19.9778253 C22.152395,19.981097 22.1605326,19.9836417 22.1690401,19.9861863 C22.1708896,19.9861863 22.172739,19.9869133 22.1745885,19.9872768 C22.2052894,19.9952743 22.2374699,20 22.2707601,20 L23.6241909,20 C23.8320695,20 24,19.8349624 24,19.6313919 L24,11.3686081 C24,11.1654011 23.8320695,11 23.6241909,11" id="Fill-3" fill="#FFFFFF"></path>
                    <path d="M11.6345287,17.9309342 L8.05118039,17.9309342 L8.05118039,11.3693202 C8.05118039,11.1653944 7.88718688,11 7.68534871,11 L6.36619211,11 C6.16399351,11 6,11.1653944 6,11.3693202 L6,19.6303162 L6,19.6310433 C6,19.7302799 6.03928636,19.8200654 6.10236079,19.8862232 C6.10380249,19.8880407 6.10524419,19.8898582 6.10740674,19.8916758 C6.10920887,19.8934933 6.11101099,19.8949473 6.11281312,19.8967648 C6.17877095,19.9607415 6.26743557,20 6.36583168,20 L11.6345287,20 C11.8367273,20 12,19.8342421 12,19.6303162 L12,18.3002545 C12,18.0963286 11.8367273,17.9309342 11.6345287,17.9309342" id="Fill-4" fill="#FFFFFF"></path>
                    <path d="M30.6345287,13.0690658 C30.8367273,13.0690658 31,12.9040349 31,12.6997455 L31,11.3696838 C31,11.1657579 30.8367273,11 30.6345287,11 L25.3661921,11 L25.3654713,11 C25.2667147,11 25.1776897,11.0399855 25.1117318,11.1043257 C25.1102901,11.1057797 25.108488,11.1068702 25.1074067,11.1083242 C25.1052442,11.1105053 25.1034421,11.1126863 25.1016399,11.1148673 C25.0389259,11.1810251 25,11.2704471 25,11.3693202 L25,11.3696838 L25,19.6306798 L25,19.6310433 C25,19.7302799 25.0392864,19.8200654 25.1023608,19.8862232 C25.1038025,19.8880407 25.1056046,19.8902217 25.1074067,19.8916758 C25.1088484,19.8934933 25.111011,19.8953108 25.1128131,19.8967648 C25.1784105,19.960378 25.2674356,20 25.3654713,20 L30.6345287,20 C30.8367273,20 31,19.8342421 31,19.6306798 L31,18.3002545 C31,18.0966921 30.8367273,17.9309342 30.6345287,17.9309342 L27.0515408,17.9309342 L27.0515408,16.5343511 L30.6345287,16.5343511 C30.8367273,16.5343511 31,16.3689567 31,16.1650309 L31,14.8349691 C31,14.6310433 30.8367273,14.4652854 30.6345287,14.4652854 L27.0515408,14.4652854 L27.0515408,13.0690658 L30.6345287,13.0690658 Z" id="Fill-5" fill="#FFFFFF"></path>
                </g>
            </g>
        </g>
    </g>
</svg>