<?xml version="1.0" encoding="UTF-8"?>
<svg width="36px" height="36px" viewBox="0 0 36 36" version="1.1" xmlns="http://www.w3.org/2000/svg" xmlns:xlink="http://www.w3.org/1999/xlink">
    <!-- Generator: Sketch 42 (36781) - http://www.bohemiancoding.com/sketch -->
    <title>Mail.ru_Color</title>
    <desc>Created with Sketch.</desc>
    <defs></defs>
    <g id="Page-1" stroke="none" stroke-width="1" fill="none" fill-rule="evenodd">
        <g id="Social_icons_no_circle" transform="translate(-72.000000, -1281.000000)">
            <g id="Color" transform="translate(71.000000, 182.000000)">
                <g id="Mail.ru" transform="translate(1.000000, 1099.000000)">
                    <path d="M0,18 C0,8.05887401 8.05887401,0 18,0 C27.941126,0 36,8.05887401 36,18 C36,27.941126 27.941126,36 18,36 C8.05887401,36 0,27.941126 0,18 Z" id="back" fill="#168DE2"></path>
                    <path d="M21.7301139,17.9013861 C21.6072038,15.5130118 19.8347995,14.0769783 17.6939486,14.0769783 L17.6133332,14.0769783 C15.1429241,14.0769783 13.7727455,16.0196968 13.7727455,18.2264026 C13.7727455,20.6976632 15.4304715,22.25831 17.6036821,22.25831 C20.0269708,22.25831 21.6205451,20.483351 21.7357911,18.3839433 L21.7301139,17.9013861 Z M17.6255391,11.9403852 C19.2761686,11.9403852 20.8280158,12.6698982 21.9677024,13.8121395 L21.9677024,13.8166812 C21.9677024,13.2679853 22.3367167,12.8546892 22.8493628,12.8546892 L22.9788017,12.8538377 C23.7806982,12.8538377 23.9450515,13.6125879 23.9450515,13.8527311 L23.9490255,22.3809363 C23.892538,22.9387157 24.5252556,23.2268307 24.8761031,22.8691707 C26.2454302,21.4618068 27.88357,15.6347865 24.0248154,12.2583053 C20.4283449,9.11061297 15.6030566,9.6295039 13.0367038,11.398218 C10.3085524,13.2799073 8.56283074,17.4438083 10.2585936,21.3547926 C12.1070715,25.6217338 17.3967502,26.893414 20.5404685,25.6248562 C22.1323396,24.9822036 22.8678135,27.1344087 21.2143454,27.8372391 C18.7161184,28.9019874 11.7630366,28.7946894 8.51485888,23.1680723 C6.32035899,19.3686439 6.43730815,12.6835233 12.2575158,9.22018184 C16.7100996,6.57094274 22.5802662,7.30471357 26.1199653,11.0016695 C29.8200437,14.8661012 29.6043122,22.1024724 25.9950681,24.9174841 C24.3600507,26.1951253 21.9313687,24.9509793 21.9469808,23.0883084 L21.9299494,22.4791509 C20.7913982,23.6091864 19.2761686,24.2683027 17.6255391,24.2683027 C14.3637362,24.2683027 11.49394,21.3982228 11.49394,18.1375553 C11.49394,14.8433927 14.3637362,11.9403852 17.6255391,11.9403852 L17.6255391,11.9403852 Z" id="Fill-4" fill="#FFA930"></path>
                </g>
            </g>
        </g>
    </g>
</svg>