<?xml version="1.0" encoding="UTF-8"?>
<svg width="36px" height="36px" viewBox="0 0 36 36" version="1.1" xmlns="http://www.w3.org/2000/svg" xmlns:xlink="http://www.w3.org/1999/xlink">
    <!-- Generator: Sketch 42 (36781) - http://www.bohemiancoding.com/sketch -->
    <title>Messenger_Color</title>
    <desc>Created with Sketch.</desc>
    <defs></defs>
    <g id="Page-1" stroke="none" stroke-width="1" fill="none" fill-rule="evenodd">
        <g id="Social_icons_no_circle" transform="translate(-72.000000, -881.000000)" fill="#0084FF">
            <g id="Color" transform="translate(71.000000, 182.000000)">
                <g id="Messenger" transform="translate(1.000000, 699.000000)">
                    <path d="M18,0 C8.05885714,0 0,7.46188889 0,16.6666667 C0,21.9116667 2.61749068,26.5901111 6.70807453,29.6452222 L6.70807453,36 L12.8369068,32.6363333 C14.472559,33.089 16.2053665,33.3333333 18,33.3333333 C27.9411429,33.3333333 36,25.8714444 36,16.6666667 C36,7.46188889 27.9411429,0 18,0 L18,0 Z M19.3157895,22 L14.8038278,17.3191489 L6,22 L15.6842105,12 L20.3062201,16.6808511 L29,12 L19.3157895,22 L19.3157895,22 Z" id="Shape"></path>
                </g>
            </g>
        </g>
    </g>
</svg>