<?xml version="1.0" encoding="UTF-8"?>
<svg width="18px" height="30px" viewBox="0 0 18 30" version="1.1" xmlns="http://www.w3.org/2000/svg" xmlns:xlink="http://www.w3.org/1999/xlink">
    <!-- Generator: Sketch 42 (36781) - http://www.bohemiancoding.com/sketch -->
    <title>OK_Color</title>
    <desc>Created with Sketch.</desc>
    <defs></defs>
    <g id="Page-1" stroke="none" stroke-width="1" fill="none" fill-rule="evenodd">
        <g id="Social_icons_no_circle" transform="translate(-281.000000, -184.000000)" fill="#F68634">
            <g id="Color" transform="translate(71.000000, 182.000000)">
                <g id="OK" transform="translate(210.000000, 2.000000)">
                    <path d="M8.97962486,4.53707513 C10.8107716,4.53707513 12.3002578,5.97439459 12.3002578,7.74197791 C12.3002578,9.50817163 10.8107716,10.9464175 8.97962486,10.9464175 C7.14991772,10.9464175 5.65899193,9.50817163 5.65899193,7.74197791 C5.65899193,5.97439459 7.14991772,4.53707513 8.97962486,4.53707513 L8.97962486,4.53707513 Z M8.97962486,15.4816398 C4.55675293,15.4816398 0.9597205,12.009932 0.9597205,7.74197791 C0.9597205,3.47263422 4.55675293,0 8.97962486,0 C13.4034565,0 16.9995292,3.47263422 16.9995292,7.74197791 C16.9995292,12.009932 13.4034565,15.4816398 8.97962486,15.4816398 Z M12.2449529,21.8003773 L16.7282872,26.1285478 C17.6467397,27.0132659 17.6467397,28.4501222 16.7282872,29.3357666 C15.8107944,30.2214111 14.3237075,30.2214111 13.4071744,29.3357666 L8.99917812,25.0826351 L4.59502075,29.3357666 C4.13579449,29.7781257 3.53404974,29.9995368 2.93230498,29.9995368 C2.33151995,29.9995368 1.73073492,29.7781257 1.27150866,29.3357666 C0.35401586,28.4501222 0.35401586,27.0141923 1.27054894,26.1285478 L5.75436311,21.8003773 C4.12187854,21.4413949 2.54745706,20.816997 1.09731939,19.9387638 C-0.000121004414,19.2708248 -0.329784996,17.871488 0.361693624,16.8112159 C1.0512528,15.7495542 2.50139048,15.429944 3.60075031,16.097883 C6.88395414,18.0915095 11.1134424,18.0919727 14.3985657,16.097883 C15.4979255,15.429944 16.9475833,15.7495542 17.6385821,16.8112159 C18.3300607,17.8705616 17.999437,19.2708248 16.9019966,19.9387638 C15.4518589,20.8179234 13.8774374,21.4413949 12.2449529,21.8003773 Z" id="Shape"></path>
                </g>
            </g>
        </g>
    </g>
</svg>