<?xml version="1.0" encoding="UTF-8"?>
<svg width="36px" height="28px" viewBox="0 0 36 28" version="1.1" xmlns="http://www.w3.org/2000/svg" xmlns:xlink="http://www.w3.org/1999/xlink">
    <!-- Generator: Sketch 42 (36781) - http://www.bohemiancoding.com/sketch -->
    <title>Playstation_Color</title>
    <desc>Created with Sketch.</desc>
    <defs></defs>
    <g id="Page-1" stroke="none" stroke-width="1" fill="none" fill-rule="evenodd">
        <g id="Social_icons_no_circle" transform="translate(-72.000000, -1085.000000)" fill="#000000">
            <g id="Color" transform="translate(71.000000, 182.000000)">
                <g id="Playstation" transform="translate(1.000000, 903.000000)">
                    <path d="M14,28 L14,1.87575212 L19.5757138,0 L19.5757138,21.9123903 C19.5757138,22.9382593 20.0098301,23.6239604 20.7019877,23.3857356 C21.6137333,23.1185375 21.7918323,22.1720768 21.7918323,21.1462078 L21.7918323,12.3952018 C25.2647633,10.6181735 28,12.3962749 28,17.0953129 C28,21.9123903 26.4001446,24.0499751 21.6784966,25.7679838 C19.8226238,26.4311501 16.3689194,27.5353543 14,28" id="path3107" transform="translate(21.000000, 14.000000) scale(1, -1) translate(-21.000000, -14.000000) "></path>
                    <path d="M21,21.3148796 L30.0910364,24.5985653 C31.119281,24.9718531 31.2793669,25.5000711 30.4430203,25.7776975 C29.6046213,26.0563636 28.0868831,25.9752593 27.05556,25.6009316 L21,23.440229 L21,26.8819641 L21.3489053,27.0005012 C21.3489053,27.0005012 23.0995892,27.6275001 25.5614242,27.9030469 C28.022233,28.1785936 31.0361594,27.8676937 33.4005061,26.9589093 C36.0675796,26.1031546 36.3682539,24.8460374 35.6919933,23.9798848 C35.012654,23.1137321 33.3522751,22.4950516 33.3522751,22.4950516 L21,18 L21,21.3148796" id="path3111" transform="translate(28.500000, 23.000000) scale(1, -1) translate(-28.500000, -23.000000) "></path>
                    <path d="M2.85373814,15.9795794 C-0.143867893,16.7844078 -0.643656085,18.4605085 0.719811028,19.4260883 C1.98556674,20.3187941 4.12960193,20.9928781 4.12960193,20.9928781 L13,24 L13,20.5727813 L6.61843481,18.3919213 C5.48857656,18.0039747 5.31673928,17.4606351 6.2320817,17.1734261 C7.14967035,16.886217 8.80964102,16.9676643 9.93837615,17.3556109 L13,18.4133548 L13,15.3462191 C12.8045772,15.3119255 12.5878151,15.2797752 12.389023,15.2476249 C9.32515289,14.7696576 6.06473688,14.9679176 2.85373814,15.9795794" id="path3115" transform="translate(6.500000, 19.500000) scale(1, -1) translate(-6.500000, -19.500000) "></path>
                </g>
            </g>
        </g>
    </g>
</svg>