<?xml version="1.0" encoding="UTF-8"?>
<svg width="36px" height="36px" viewBox="0 0 36 36" version="1.1" xmlns="http://www.w3.org/2000/svg" xmlns:xlink="http://www.w3.org/1999/xlink">
    <!-- Generator: Sketch 42 (36781) - http://www.bohemiancoding.com/sketch -->
    <title>Reddit_Color</title>
    <desc>Created with Sketch.</desc>
    <defs></defs>
    <g id="Page-1" stroke="none" stroke-width="1" fill="none" fill-rule="evenodd">
        <g id="Social_icons_no_circle" transform="translate(-472.000000, -881.000000)">
            <g id="Color" transform="translate(71.000000, 182.000000)">
                <g id="Reddit" transform="translate(401.000000, 699.000000)">
                    <path d="M18,36 C27.9411255,36 36,27.9411255 36,18 C36,8.0588745 27.9411255,0 18,0 C8.0588745,0 0,8.0588745 0,18 C0,27.9411255 8.0588745,36 18,36 Z" id="Oval" fill="#FF5700"></path>
                    <g id="Group" transform="translate(5.400000, 7.200000)" fill="#FFFFFF">
                        <path d="M25.8,10.5656108 C25.8,8.91934054 24.4548818,7.57984865 22.8010432,7.57984865 C22.0446341,7.57984865 21.3544841,7.86269189 20.8264636,8.32446486 C18.9474614,7.12274595 16.4633318,6.34076757 13.7124068,6.20387027 L15.1589659,1.65181622 L19.1057795,2.57711351 C19.15005,3.90317838 20.2444977,4.96945946 21.5875636,4.96945946 C22.9581886,4.96945946 24.0734523,3.85939459 24.0734523,2.49450811 C24.0734523,1.12962162 22.9578955,0.0195567568 21.5875636,0.0195567568 C20.5919182,0.0195567568 19.733775,0.606551351 19.3368068,1.44953514 L14.9018455,0.410691892 C14.6080773,0.342097297 14.3096182,0.510518919 14.2196114,0.797156757 L12.5071364,6.18606486 C9.57825,6.24327568 6.92114318,7.0308 4.92985227,8.28505946 C4.40769545,7.84605405 3.73367045,7.57984865 2.99895682,7.57984865 C1.34511818,7.58014054 0,8.91934054 0,10.5656108 C0,11.6137946 0.546490909,12.5352973 1.36915909,13.0677081 C1.32723409,13.3350811 1.30465909,13.6059568 1.30465909,13.8800432 C1.30465909,18.1256108 6.48225,21.5798595 12.8472273,21.5798595 C19.2116182,21.5798595 24.3897955,18.1256108 24.3897955,13.8800432 C24.3897955,13.6258054 24.3704455,13.3744865 24.3343841,13.1257946 C25.2095318,12.6050595 25.8,11.6540757 25.8,10.5656108 L25.8,10.5656108 Z M21.5875636,1.17019459 C22.3213977,1.17019459 22.9183159,1.76477838 22.9183159,2.49538378 C22.9183159,3.22598919 22.3213977,3.82028108 21.5875636,3.82028108 C20.8534364,3.82028108 20.2565182,3.22598919 20.2565182,2.49538378 C20.2565182,1.76477838 20.8534364,1.17019459 21.5875636,1.17019459 L21.5875636,1.17019459 Z M1.15513636,10.5656108 C1.15513636,9.55362162 1.98220227,8.7299027 2.99866364,8.7299027 C3.34197955,8.7299027 3.66272045,8.82593514 3.93860455,8.98968649 C2.90982955,9.82187027 2.13993409,10.8011676 1.70573182,11.8715351 C1.36593409,11.5384865 1.15513636,11.0764216 1.15513636,10.5656108 L1.15513636,10.5656108 Z M23.2346591,13.880627 C23.2346591,17.4916216 18.5742409,20.4300973 12.8472273,20.4300973 C7.11933409,20.4300973 2.45979545,17.4919135 2.45979545,13.880627 C2.45979545,13.7533622 2.46683182,13.6278486 2.47797273,13.502627 C2.51286136,13.1187892 2.60198864,12.7434162 2.73773182,12.3797189 C3.08984318,11.4369081 3.76533409,10.5717405 4.68797727,9.83412973 C4.98321136,9.59798919 5.30307273,9.37498378 5.64550909,9.16686486 C7.51454318,8.03111351 10.0529114,7.33057297 12.8472273,7.33057297 C15.6820023,7.33057297 18.2546727,8.05096216 20.1298636,9.2159027 C20.4731795,9.42869189 20.7921614,9.65695135 21.0859295,9.89834595 C21.971925,10.6248649 22.6195636,11.4719351 22.9611205,12.3928541 C23.0956909,12.7577189 23.1848182,13.1333838 23.2182409,13.5180973 C23.2285023,13.6386486 23.2346591,13.7589081 23.2346591,13.880627 L23.2346591,13.880627 Z M24.0180409,11.9401297 C23.5961523,10.8586703 22.8280159,9.86944865 21.7998273,9.02675676 C22.0883182,8.83965405 22.4319273,8.7299027 22.8013364,8.7299027 C23.8180909,8.7299027 24.6451568,9.55332973 24.6451568,10.5656108 C24.6445705,11.1129081 24.4012295,11.6038703 24.0180409,11.9401297 L24.0180409,11.9401297 Z" id="Shape"></path>
                        <path d="M10.8128386,12.4961838 C10.8128386,11.5265189 10.0230068,10.7130162 9.04876364,10.7130162 C8.07481364,10.7130162 7.25800909,11.5265189 7.25800909,12.4961838 C7.25800909,13.4655568 8.07510682,14.2527892 9.04876364,14.2527892 C10.0230068,14.2516216 10.8128386,13.4655568 10.8128386,12.4961838 L10.8128386,12.4961838 Z" id="Shape"></path>
                        <path d="M16.7779159,10.7124324 C15.8039659,10.7124324 14.9845227,11.5256432 14.9845227,12.4953081 C14.9845227,13.4652649 15.8039659,14.2519135 16.7779159,14.2519135 C17.7521591,14.2519135 18.5425773,13.4658486 18.5425773,12.4953081 C18.5419909,11.5250595 17.7521591,10.7124324 16.7779159,10.7124324 L16.7779159,10.7124324 Z" id="Shape"></path>
                        <path d="M16.2795068,16.753427 C15.6260045,17.4031784 14.5256932,17.7187135 12.9134864,17.7187135 C12.9085023,17.7187135 12.9041045,17.720173 12.8994136,17.720173 C12.8944295,17.720173 12.890325,17.7187135 12.8856341,17.7187135 C11.2731341,17.7187135 10.1725295,17.4031784 9.51990682,16.753427 C9.29445,16.5286703 8.92855909,16.5286703 8.70310227,16.753427 C8.47735227,16.9784757 8.47735227,17.3424649 8.70310227,17.5663459 C9.58294091,18.4426054 10.9512205,18.8690595 12.8856341,18.8690595 C12.8906182,18.8690595 12.8947227,18.8673081 12.8994136,18.8673081 C12.9041045,18.8673081 12.9085023,18.8690595 12.9134864,18.8690595 C14.8476068,18.8690595 16.2161795,18.4426054 17.0968977,17.5669297 C17.3229409,17.3418811 17.3229409,16.9781838 17.0974841,16.7540108 C16.8714409,16.5292541 16.50555,16.5292541 16.2795068,16.753427 L16.2795068,16.753427 Z" id="Shape"></path>
                    </g>
                </g>
            </g>
        </g>
    </g>
</svg>