<?xml version="1.0" encoding="UTF-8"?>
<svg width="36px" height="37px" viewBox="0 0 36 37" version="1.1" xmlns="http://www.w3.org/2000/svg" xmlns:xlink="http://www.w3.org/1999/xlink">
    <!-- Generator: Sketch 42 (36781) - http://www.bohemiancoding.com/sketch -->
    <title>Share_Color</title>
    <desc>Created with Sketch.</desc>
    <defs></defs>
    <g id="Page-1" stroke="none" stroke-width="1" fill="none" fill-rule="evenodd">
        <g id="Social_icons_no_circle" transform="translate(-570.000000, -681.000000)" fill="#228CC4">
            <g id="Color" transform="translate(71.000000, 182.000000)">
                <g id="Share" transform="translate(499.000000, 499.000000)">
                    <path d="M10.5798982,14.2771083 L24.0230155,7.96067977 C23.8519771,7.39299777 23.76,6.79065532 23.76,6.16666667 C23.76,2.76091071 26.5000173,0 29.88,0 C33.2599827,0 36,2.76091071 36,6.16666667 C36,9.57242262 33.2599827,12.3333333 29.88,12.3333333 C28.4426477,12.3333333 27.1210275,11.8340468 26.0766409,10.9982065 L12.1654369,17.5345711 C12.2145178,17.8491184 12.24,18.1715607 12.24,18.5 C12.24,18.8284393 12.2145178,19.1508816 12.1654369,19.4654289 L26.0766412,26.0017944 C27.1210275,25.1659532 28.4426477,24.6666667 29.88,24.6666667 C33.2599827,24.6666667 36,27.4275774 36,30.8333333 C36,34.2390893 33.2599827,37 29.88,37 C26.5000173,37 23.76,34.2390893 23.76,30.8333333 C23.76,30.2093447 23.8519771,29.6070022 24.0230155,29.0393202 L10.5798982,22.7228917 C9.46360174,23.9194253 7.87840428,24.6666667 6.12,24.6666667 C2.74001733,24.6666667 0,21.905756 0,18.5 C0,15.094244 2.74001733,12.3333333 6.12,12.3333333 C7.87840428,12.3333333 9.46360174,13.0805747 10.5798982,14.2771083 L10.5798982,14.2771083 Z" id="Combined-Shape"></path>
                </g>
            </g>
        </g>
    </g>
</svg>