<?xml version="1.0" encoding="UTF-8"?>
<svg width="32px" height="32px" viewBox="0 0 32 32" version="1.1" xmlns="http://www.w3.org/2000/svg" xmlns:xlink="http://www.w3.org/1999/xlink">
    <!-- Generator: Sketch 42 (36781) - http://www.bohemiancoding.com/sketch -->
    <title>Skype_Color</title>
    <desc>Created with Sketch.</desc>
    <defs></defs>
    <g id="Page-1" stroke="none" stroke-width="1" fill="none" fill-rule="evenodd">
        <g id="Social_icons_no_circle" transform="translate(-574.000000, -483.000000)" fill="#00AEF3">
            <g id="Color" transform="translate(71.000000, 182.000000)">
                <g id="Skype" transform="translate(503.000000, 301.000000)">
                    <path d="M31.0799624,19.3969744 C31.6688617,20.5654669 32,21.8804846 32,23.2734017 C32,28.092042 28.0376294,32 23.1495767,32 C21.6349953,32 20.2126058,31.6234858 18.9651929,30.9631948 C18.0583255,31.1282675 17.1251176,31.2154408 16.1693321,31.2154408 C7.74035748,31.2154408 0.906867357,24.4789892 0.906867357,16.1660001 C0.906867357,15.1310497 1.01411101,14.1183562 1.21542803,13.1427578 C0.444026341,11.8444329 0,10.3383759 0,8.72845302 C0,3.90610329 3.96237065,0 8.8523048,0 C10.5813735,0 12.1956726,0.491508723 13.5597366,1.33912943 C14.4101599,1.19445893 15.2812794,1.11841419 16.1693321,1.11841419 C24.6001881,1.11841419 31.4317968,7.85672057 31.4317968,16.1660001 C31.4317968,17.2751406 31.3113829,18.354605 31.0799624,19.3969744 Z M23.9981185,23.3587202 C24.7055503,22.3701385 25.0667921,21.2405958 25.0667921,20.0016229 C25.0667921,18.9648177 24.8579492,18.0745378 24.4459078,17.3493306 C24.0338664,16.6296876 23.4562559,16.0287486 22.7262465,15.5594969 C22.0075259,15.0976642 21.130762,14.7044572 20.1128881,14.3854402 C19.1100659,14.068278 17.9755409,13.7733727 16.7394167,13.5137078 C15.7629351,13.2911378 15.0517404,13.118646 14.6284102,13.0017968 C14.2144873,12.8905118 13.8005644,12.7310033 13.3998119,12.5325451 C13.0122295,12.3396511 12.7055503,12.1133716 12.491063,11.8499971 C12.2841016,11.6051701 12.1843838,11.3176839 12.1843838,10.9764099 C12.1843838,10.4162754 12.494826,9.94331421 13.130762,9.53341448 C13.7911571,9.10496725 14.6829727,8.88981626 15.7742239,8.88981626 C16.953904,8.88981626 17.8099718,9.08271025 18.3236124,9.46849823 C18.8523048,9.86541471 19.3132643,10.4274039 19.6933208,11.1396279 C20.0225776,11.6960529 20.3198495,12.0855503 20.6058325,12.3359416 C20.9106303,12.6030256 21.3546566,12.7402771 21.9190969,12.7402771 C22.5399812,12.7402771 23.0686736,12.5232713 23.4863594,12.0929693 C23.9021637,11.6682316 24.1128881,11.1785776 24.1128881,10.6407002 C24.1128881,10.0824204 23.9510818,9.50559323 23.6349953,8.92505651 C23.3226717,8.35008404 22.8222013,7.79922332 22.1505174,7.27989335 C21.4844779,6.76612763 20.6378175,6.35066365 19.6312324,6.04277517 C18.6302916,5.73488669 17.4317968,5.57908769 16.0696143,5.57908769 C14.3631232,5.57908769 12.8579492,5.81278618 11.5917215,6.27461891 C10.3066792,6.74016113 9.30950141,7.42641859 8.62841016,8.3037153 C7.93979304,9.18657625 7.59172154,10.2122529 7.59172154,11.3473599 C7.59172154,12.5399641 7.9247413,13.5545123 8.579492,14.365038 C9.22483537,15.1607257 10.1072437,15.7969049 11.2022578,16.2550281 C12.2709313,16.7057323 13.6161806,17.1007941 15.2022578,17.434649 C16.3668862,17.6757665 17.3076199,17.9076103 18.0018815,18.1190518 C18.6660395,18.3267837 19.2135466,18.6235437 19.6312324,19.0056222 C20.0263405,19.3728627 20.2201317,19.8402597 20.2201317,20.4319249 C20.2201317,21.1849533 19.8513641,21.8007303 19.0893697,22.3107865 C18.3123236,22.833826 17.2775165,23.10091 16.0150517,23.10091 C15.098777,23.10091 14.3518344,22.967368 13.798683,22.7114125 C13.2492944,22.4536023 12.8184384,22.1253115 12.5174036,21.7321046 C12.2069614,21.3296238 11.9134525,20.8140034 11.6425212,20.2019359 C11.3998119,19.6436562 11.098777,19.2077899 10.7469426,18.9128847 C10.3800564,18.606851 9.92662277,18.4529067 9.40357479,18.4529067 C8.76387582,18.4529067 8.22765757,18.6476555 7.80997178,19.037153 C7.38852305,19.4285052 7.17403575,19.9070307 7.17403575,20.4560366 C7.17403575,21.3407523 7.5014111,22.255144 8.1505174,23.1751 C8.79209784,24.0913464 9.63687676,24.8295369 10.6622766,25.3748334 C12.0978363,26.1260071 13.9360301,26.5062308 16.1279398,26.5062308 C17.9548448,26.5062308 19.5578551,26.2261636 20.8955786,25.6771576 C22.2502352,25.1244421 23.2925682,24.3454472 23.9981185,23.3587202 Z"></path>
                </g>
            </g>
        </g>
    </g>
</svg>