<?xml version="1.0" encoding="UTF-8"?>
<svg width="36px" height="36px" viewBox="0 0 36 36" version="1.1" xmlns="http://www.w3.org/2000/svg" xmlns:xlink="http://www.w3.org/1999/xlink">
    <!-- Generator: Sketch 42 (36781) - http://www.bohemiancoding.com/sketch -->
    <title>Steam_Color</title>
    <desc>Created with Sketch.</desc>
    <defs></defs>
    <g id="Page-1" stroke="none" stroke-width="1" fill="none" fill-rule="evenodd">
        <g id="Social_icons_no_circle" transform="translate(-472.000000, -1180.000000)">
            <g id="Color" transform="translate(71.000000, 182.000000)">
                <g id="Steam" transform="translate(401.000000, 998.000000)">
                    <path d="M17.980666,36 C27.9322879,36 36,27.9409442 36,18 C36,8.05890129 27.9322879,0 17.980666,0 C8.43103759,0 0.617142857,7.4207897 0,16.8041202 C1.16609066,18.7601717 1.62112137,19.9699571 0.717850054,23.1775107 C2.9438797,30.5953648 9.83035875,36 17.980666,36 Z" id="Shape" fill="#FFFFFF"></path>
                    <path d="M16.9811992,13.4683597 C16.9811992,13.4987328 16.9811992,13.5291059 16.9827381,13.5576195 L12.5957915,19.975031 C11.8851517,19.9424883 11.1720497,20.06801 10.4958801,20.3484967 C10.1978054,20.470919 9.91850454,20.6212351 9.6564388,20.7947959 L0.0234070563,16.8013473 C0.0234824598,16.8013473 -0.199495011,20.4941638 0.72943031,23.2463426 L7.53944623,26.0760038 C7.88137816,27.6148065 8.92964111,28.9645518 10.4761829,29.6138553 C13.0065099,30.678465 15.924011,29.4650888 16.9765827,26.9159142 C17.2504975,26.2495647 17.3782219,25.5506724 17.3597557,24.8533298 L23.6367149,20.3360995 C23.6874968,20.3376491 23.7398176,20.3391988 23.7905996,20.3391988 C27.5469265,20.3391988 30.6,17.2553948 30.6,13.4683597 C30.6,9.68101455 27.5469265,6.6 23.7905996,6.6 C20.0358116,6.6 16.9811992,9.68101455 16.9811992,13.4683597 L16.9811992,13.4683597 Z M15.9286275,26.4727143 C15.1139616,28.4423197 12.8663209,29.3767588 10.9126001,28.5569938 C10.011297,28.1788792 9.33081866,27.4861855 8.93825865,26.660222 L11.1549685,27.5853631 C12.5957915,28.1897267 14.2488215,27.501682 14.847741,26.0512094 C15.4485071,24.5991872 14.7669515,22.9317636 13.326898,22.3274 L11.0354001,21.3712658 C11.9196219,21.0334421 12.9247971,21.0210448 13.8639558,21.414656 C14.8108087,21.8113665 15.5454545,22.5582979 15.9347829,23.5128824 C16.3241113,24.4674669 16.3225725,25.5212291 15.9286275,26.4727143 L15.9286275,26.4727143 Z M23.7905996,18.0457164 C21.2899724,18.0457164 19.2540771,15.9924299 19.2540771,13.4683597 C19.2540771,10.9463039 21.2899724,8.89239755 23.7905996,8.89239755 C26.2927657,8.89239755 28.328661,10.9463039 28.328661,13.4683597 C28.328661,15.9924299 26.2927657,18.0457164 23.7905996,18.0457164 L23.7905996,18.0457164 Z M20.3912854,13.4613862 C20.3912854,11.5625998 21.9178222,10.0225575 23.7982939,10.0225575 C25.6803044,10.0225575 27.2068412,11.5625998 27.2068412,13.4613862 C27.2068412,15.3603276 25.6803044,16.8989753 23.7982939,16.8989753 C21.9178222,16.8989753 20.3912854,15.3603276 20.3912854,13.4613862 L20.3912854,13.4613862 Z" id="Shape" fill="#000000"></path>
                </g>
            </g>
        </g>
    </g>
</svg>