<?xml version="1.0" encoding="UTF-8"?>
<svg width="35px" height="36px" viewBox="0 0 35 36" version="1.1" xmlns="http://www.w3.org/2000/svg" xmlns:xlink="http://www.w3.org/1999/xlink">
    <!-- Generator: Sketch 42 (36781) - http://www.bohemiancoding.com/sketch -->
    <title>Twitch_Color</title>
    <desc>Created with Sketch.</desc>
    <defs></defs>
    <g id="Page-1" stroke="none" stroke-width="1" fill="none" fill-rule="evenodd">
        <g id="Social_icons_no_circle" transform="translate(-273.000000, -1083.000000)" fill="#6441A5">
            <g id="Color" transform="translate(71.000000, 182.000000)">
                <g id="Twitch" transform="translate(202.000000, 901.000000)">
                    <g id="Twitch_GlitchIcon_purple">
                        <path d="M2.413944,3.59999999e-05 L0.066144,6.261036 L0.066144,31.302036 L8.670744,31.302036 L8.670744,36.000036 L13.368504,36.000036 L18.061584,31.302036 L25.103184,31.302036 L34.493904,21.914676 L34.493904,3.59999999e-05 L2.413944,3.59999999e-05 Z M5.541864,3.128556 L31.364664,3.128556 L31.364664,20.346276 L25.885944,25.825356 L17.280024,25.825356 L12.588264,30.516876 L12.588264,25.825356 L5.541864,25.825356 L5.541864,3.128556 Z" id="Fill-1"></path>
                        <path d="M14.14992,18.78312 L17.28,18.78312 L17.28,9.39288 L14.14992,9.39288 L14.14992,18.78312 Z M22.75644,18.78312 L25.88592,18.78312 L25.88592,9.39288 L22.75644,9.39288 L22.75644,18.78312 Z" id="Fill-2"></path>
                    </g>
                </g>
            </g>
        </g>
    </g>
</svg>