<?xml version="1.0" encoding="UTF-8"?>
<svg width="36px" height="32px" viewBox="0 0 36 32" version="1.1" xmlns="http://www.w3.org/2000/svg" xmlns:xlink="http://www.w3.org/1999/xlink">
    <!-- Generator: Sketch 42 (36781) - http://www.bohemiancoding.com/sketch -->
    <title>Vimeo_Color</title>
    <desc>Created with Sketch.</desc>
    <defs></defs>
    <g id="Page-1" stroke="none" stroke-width="1" fill="none" fill-rule="evenodd">
        <g id="Social_icons_no_circle" transform="translate(-71.000000, -586.000000)" fill="#31AFD8">
            <g id="Color" transform="translate(71.000000, 182.000000)">
                <g id="Vimeo" transform="translate(0.000000, 404.000000)">
                    <path d="M35.9824963,7.20250828 C35.8222531,10.7066877 33.3750149,15.5040217 28.6403667,21.5945105 C23.7458903,27.9540086 19.6044742,31.1352107 16.218194,31.1352107 C14.1188414,31.1352107 12.3432965,29.1994225 10.8923893,25.32494 C9.92387253,21.7734349 8.95618598,18.222345 7.98725402,14.6708399 C6.90955592,10.7984331 5.75464217,8.86015408 4.51836137,8.86015408 C4.24893685,8.86015408 3.30657372,9.42681737 1.69293253,10.5551623 L0,8.37402755 C1.7767904,6.81352402 3.52908765,5.25260536 5.25315553,3.689611 C7.62276291,1.64298094 9.40287441,0.565697981 10.5885084,0.457346978 C13.3890289,0.187922453 15.113512,2.10253865 15.760712,6.20119556 C16.4602194,10.6240752 16.9446854,13.3743641 17.2161856,14.4508168 C18.0248743,18.120221 18.9136847,19.9530551 19.8838621,19.9530551 C20.6365071,19.9530551 21.7690035,18.7632697 23.278445,16.3820385 C24.7849806,14.0024678 25.592839,12.1916361 25.7016052,10.9470525 C25.9170618,8.89336512 25.1092033,7.86382302 23.278445,7.86382302 C22.4166186,7.86382302 21.5278083,8.06225896 20.6136746,8.45414917 C22.3834076,2.6600689 25.7634607,-0.154151212 30.7525885,0.0065071718 C34.4514676,0.114858175 36.1962924,2.51352521 35.9824963,7.20250828" id="Fill-4"></path>
                </g>
            </g>
        </g>
    </g>
</svg>