<?xml version="1.0" encoding="UTF-8"?>
<svg width="36px" height="36px" viewBox="0 0 36 36" version="1.1" xmlns="http://www.w3.org/2000/svg" xmlns:xlink="http://www.w3.org/1999/xlink">
    <!-- Generator: Sketch 42 (36781) - http://www.bohemiancoding.com/sketch -->
    <title>World_Color</title>
    <desc>Created with Sketch.</desc>
    <defs></defs>
    <g id="Page-1" stroke="none" stroke-width="1" fill="none" fill-rule="evenodd">
        <g id="Social_icons_no_circle" transform="translate(-372.000000, -781.000000)" fill="#228CC4">
            <g id="Color" transform="translate(71.000000, 182.000000)">
                <g id="World" transform="translate(301.000000, 599.000000)">
                    <path d="M17.9993647,0 C8.0753838,0 0,8.07411329 0,17.9993647 C0,27.9246162 8.0753838,35.9987295 17.9993647,35.9987295 C27.9246162,35.9987295 36,27.9258867 36,17.9993647 C36,8.07411329 27.9246162,0 17.9993647,0 L17.9993647,0 Z M34.443621,17.9993647 C34.443621,18.3144521 34.4156697,18.6219164 34.396612,18.9331922 C34.2809952,18.6409741 34.1056644,18.25982 34.0637374,18.0959238 C34.0027528,17.8469031 33.6304923,16.9791424 33.6304923,16.9791424 C33.6304923,16.9791424 33.2582319,16.4836421 33.0104817,16.3591318 C32.7640021,16.2346215 32.5772366,15.9246162 32.142721,15.6781366 C31.7082054,15.4291159 31.5239809,15.3058761 31.152991,15.3058761 C30.77946,15.3058761 30.4097406,14.8091053 29.9739545,14.5613552 C29.5394389,14.3148756 29.4784542,14.4381154 29.4784542,14.4381154 C29.4784542,14.4381154 29.9739545,15.1813658 29.9739545,15.3668608 C29.9739545,15.5523557 30.5304394,15.862361 31.0907358,15.7378507 C31.0907358,15.7378507 31.4617258,16.4201165 31.6472208,16.6056114 C31.8327157,16.7911064 31.5849656,16.9778719 31.2139756,17.225622 C30.8417152,17.4721016 30.9039704,17.411117 30.7159344,17.596612 C30.5304394,17.7821069 29.9116993,18.0946533 29.7249338,18.2166226 C29.5394389,18.3398624 28.7961885,18.7121228 28.4251985,18.3398624 C28.2435151,18.16072 28.2994177,17.7833774 28.1774484,17.5343568 C28.0529381,17.2866067 26.7519322,15.3655903 26.1319217,14.4991001 C26.023928,14.3466384 25.7596612,13.8765484 25.5754367,13.7558497 C25.3899418,13.6300688 26.0099524,13.6300688 26.0099524,13.6300688 C26.0099524,13.6300688 26.0099524,13.1955532 25.9476972,12.8868184 C25.8841715,12.5768131 26.0099524,12.143568 26.0099524,12.143568 C26.0099524,12.143568 25.3899418,12.514558 25.2019058,12.6390683 C25.0176813,12.7635786 24.8309158,12.3925887 24.5844362,12.0813129 C24.3366861,11.7725781 24.0876654,11.3990471 24.0266808,11.0890418 C23.9644256,10.780307 24.3366861,10.6557967 24.3366861,10.6557967 L24.893171,10.3470619 C24.893171,10.3470619 25.5754367,10.2238221 26.0099524,10.2848068 C26.4431975,10.3470619 27.1241927,10.4093171 27.1241927,10.4093171 C27.1241927,10.4093171 27.3096877,9.97480148 27.0619375,9.78930651 C26.8154579,9.60381154 26.2551615,9.29380625 26.0074113,9.35606141 C25.7609317,9.41704606 26.1306511,9.04605611 26.4393859,8.79830598 L25.7533086,8.67379566 C25.7533086,8.67379566 25.1294865,8.98380095 24.942721,9.04605611 C24.757226,9.10704076 24.4345156,9.23155109 24.185495,9.54155638 C23.9390154,9.85156167 24.284595,10.2848068 24.0368449,10.4093171 C23.7903653,10.5338274 23.6226575,10.5948121 23.435892,10.6557967 C23.250397,10.7180519 22.6608788,10.6557967 22.6608788,10.6557967 C22.02054,10.6557967 22.4309158,11.2402329 22.5973531,11.4473266 L22.1018528,10.8425622 L21.7346744,9.976072 C21.7346744,9.976072 21.2061408,9.60508205 20.9583907,9.48184224 C20.7106406,9.35733192 19.9470619,8.92408682 19.9470619,8.92408682 L20.0004235,9.48184224 L20.7182636,10.208576 L20.7817893,10.2250926 L21.1553203,10.7205929 L20.330757,10.7828481 L20.330757,10.2924299 C19.5532028,10.1043939 19.7564849,9.91127581 19.6688195,9.85156167 C19.484595,9.72832186 19.0538909,9.41704606 19.0538909,9.41704606 C19.0538909,9.41704606 18.3246162,9.54155638 18.1378507,9.60381154 C17.9510852,9.6660667 17.8989942,9.85156167 17.5292747,9.97480148 C17.1557438,10.0993118 16.988036,10.2848068 16.8647962,10.4703017 C16.7415564,10.6557967 16.3375331,11.2135521 16.092324,11.4613023 C15.8433033,11.7103229 15.3833774,11.6467972 15.1978825,11.6467972 C15.011117,11.6467972 14.1166755,11.3990471 14.1166755,11.3990471 L14.1166755,10.3483325 C14.1166755,10.3483325 14.2373743,9.75881419 14.1763896,9.57331922 L14.7188989,9.48184224 L15.624775,9.29507676 L15.8903123,9.10831128 L16.2714664,8.61281101 C16.2714664,8.61281101 15.8433033,8.30280572 16.1520381,7.86956061 C16.3006882,7.6611964 16.8355744,7.62181048 17.0833245,7.43631551 C17.3298041,7.25082054 17.7046056,7.12631022 17.7046056,7.12631022 C17.7046056,7.12631022 18.1391212,6.75532028 18.5723663,6.32080466 C18.5723663,6.32080466 18.8823716,6.13403917 19.2533616,6.00952885 C19.2533616,6.00952885 20.3078878,6.93954473 20.4946533,6.93954473 C20.6814187,6.93954473 21.362414,6.50629963 21.362414,6.50629963 C21.362414,6.50629963 21.5479089,5.94981472 21.4869243,5.76304923 C21.4246691,5.57755426 21.1146638,4.95754367 21.1146638,4.95754367 C21.1146638,4.95754367 20.9291689,5.26754897 20.7436739,5.5152991 C20.5581789,5.76304923 20.4336686,6.07305453 20.4336686,6.07305453 C20.4336686,6.07305453 19.5659079,6.01334039 19.5049232,5.82784542 C19.4413976,5.64107994 19.3194283,5.33488618 19.2559026,5.15066173 C19.1961885,4.96389624 18.6994177,4.97024881 18.3296983,5.09475913 C17.9561673,5.21926945 18.3894124,4.42646903 18.3894124,4.42646903 C18.3894124,4.42646903 18.7629434,3.95892006 19.009423,3.95892006 C19.2559026,3.95892006 19.816199,3.64129169 20.0614082,3.58030704 C20.3104288,3.51805188 21.0562202,3.23472737 21.3636845,3.23472737 C21.6736898,3.23472737 22.0459502,3.36813129 22.2327157,3.36813129 L23.1614611,3.36813129 L24.4611964,3.26394918 C24.4611964,3.26394918 25.5779778,3.67686607 25.2044468,3.92588671 C25.2044468,3.92588671 25.6402329,4.19396506 25.8257279,4.37946003 C25.9997882,4.55479089 26.44955,4.21810482 26.7074643,4.07453679 C31.343568,6.98401271 34.443621,12.1308629 34.443621,17.9993647 L34.443621,17.9993647 Z M4.87750132,8.30280572 C4.87750132,8.55055585 4.53954473,8.61026998 4.87750132,9.2328216 C5.30947591,10.0383272 4.93848597,10.4105876 4.93848597,10.4105876 C4.93848597,10.4105876 3.88395977,11.153838 3.6984648,11.2783483 C3.51296983,11.4028587 3.01746956,12.0838539 3.32620434,11.8970884 C3.63620963,11.7115934 4.00719958,11.5260985 3.6984648,12.0215987 C3.3884595,12.5183695 2.83070408,13.3226046 2.70746427,13.6338804 C2.58422446,13.9451562 1.96421387,14.6871361 1.96421387,15.0593965 C1.96421387,15.431657 1.71646374,16.1761779 1.7787189,16.4861832 C1.82064584,16.7021705 1.68343039,17.3386977 1.57543674,17.6004235 C1.65929063,14.1166755 2.83197459,10.9060879 4.76823716,8.27993647 C4.83176284,8.28628904 4.87750132,8.30280572 4.87750132,8.30280572 L4.87750132,8.30280572 Z M6.86839598,5.92694547 C8.38411858,4.52811011 10.1602965,3.41259926 12.1194283,2.65791424 C11.9263102,2.90566437 11.6925357,3.15976707 11.6925357,3.15976707 C11.6925357,3.15976707 11.2592906,3.15849656 10.4525146,4.02752779 C9.64827951,4.89528851 9.83377448,4.64753838 9.64827951,4.894018 C9.46278454,5.14049762 9.52376919,5.20402329 9.08925357,5.5152991 C8.65727898,5.82403388 8.4705135,6.19629434 8.4705135,6.19629434 L7.78824775,6.44404447 L7.23176284,6.19629434 C7.23176284,6.19629434 6.73372155,6.38305982 6.79597671,6.13403917 C6.8137639,6.06797247 6.84044468,5.99936474 6.86839598,5.92694547 L6.86839598,5.92694547 Z M14.2958179,7.37278984 L14.0493383,7.00179989 L14.2958179,6.44404447 L14.8929592,6.68290101 L14.8929592,5.57628375 L15.4634198,5.26754897 L15.9373213,5.9485442 L16.6665961,6.75532028 L16.1825304,7.12631022 L14.8916887,7.37406035 L14.8916887,6.71720487 L14.2958179,7.37278984 L14.2958179,7.37278984 Z M22.3534145,13.1980942 C22.498253,13.083748 22.9721546,13.3835892 22.9721546,13.3835892 C22.9721546,13.3835892 24.5209105,13.6935945 24.7686607,13.8790895 C25.0176813,14.0658549 25.4509264,14.1903653 25.5754367,14.3771308 C25.6999471,14.5626257 26.1319217,15.1203812 26.1929063,15.3058761 C26.256432,15.4913711 26.5664373,16.1749074 26.6286924,16.421387 C26.6909476,16.6691371 26.8764426,17.2891477 27.0619375,17.599153 C27.2474325,17.9104288 28.3019587,19.2724193 28.6729487,19.8924299 L29.7910005,19.7069349 C29.7910005,19.7069349 29.6652197,20.2634198 29.5419799,20.4501853 C29.4187401,20.6356803 29.0464796,21.1311805 28.8609846,21.3789307 C28.6742192,21.6266808 28.4277395,21.9989412 28.0554791,22.307676 C27.6844891,22.6164108 27.6819481,22.9264161 27.4977237,23.1754367 C27.3122287,23.4231869 27.063208,23.9809423 27.063208,23.9809423 C27.063208,23.9809423 27.1877184,25.2209635 27.248703,25.4687136 C27.3096877,25.7164637 26.8154579,26.397459 26.8154579,26.397459 L26.256432,26.9564849 L25.50937,27.9462149 L25.5703547,28.8749603 C25.5703547,28.8749603 25.0062467,29.3107464 24.6949709,29.557226 C24.3875066,29.8037057 24.4357861,29.9904711 24.188036,30.2394918 C23.9415564,30.4859714 22.9721546,30.920487 22.7244044,30.9827422 C22.4766543,31.0449974 21.1095818,31.2304923 21.1095818,31.2304923 L21.1095818,30.6740074 L21.0816305,30.0539968 C21.0816305,30.0539968 20.8935945,29.3107464 20.706829,29.0629963 C20.5200635,28.8152462 20.6013764,28.4417152 20.2913711,28.1329804 C19.9813658,27.8229751 19.8670196,27.5764955 19.8047644,27.3884595 C19.7425093,27.2029645 19.8721016,26.6464796 19.8721016,26.6464796 C19.8721016,26.6464796 20.1223928,25.9642139 20.2456326,25.7164637 C20.3701429,25.4687136 20.2469031,25.0977237 20.1223928,24.848703 C19.9978825,24.5996824 19.9381683,23.9796718 19.9381683,23.7954473 C19.9381683,23.6099524 19.4401271,23.2986765 19.2546321,23.1131816 C19.0691371,22.9276866 19.1313923,22.678666 19.1313923,22.4334569 C19.1313923,22.1831657 18.9458973,21.6266808 19.0068819,21.1921652 C19.0691371,20.7589201 18.450397,21.0676548 18.0781366,21.1921652 C17.7058761,21.3166755 17.4593965,21.0676548 17.4593965,20.6953944 C17.4593965,20.3231339 16.7784013,20.6344097 16.3438857,20.8808894 C15.9080995,21.1286395 15.4138698,21.1286395 14.9158285,21.315405 C14.4215987,21.5008999 14.1751191,21.12991 14.1751191,21.12991 C14.1751191,21.12991 13.739333,20.7589201 13.4318687,20.5721546 C13.1205929,20.3866596 12.8105876,20.0156697 12.561567,19.7056644 C12.3150873,19.3943886 11.6938062,18.4643727 11.6340921,18.0946533 C11.571837,17.7211223 11.6340921,17.4721016 11.6340921,17.0388565 C11.6340921,16.6056114 11.6340921,16.3578613 11.6950768,16.047856 C11.7573319,15.7378507 11.9428269,15.3655903 12.1295924,15.055585 C12.3150873,14.7455797 12.9973531,14.3745897 13.1815776,14.2500794 C13.3670725,14.1268396 13.8015881,13.7558497 13.8015881,13.506829 C13.8015881,13.2590789 14.0506088,13.1358391 14.1725781,12.8868184 C14.2983589,12.6390683 14.731604,12.0203282 15.2893594,12.2680783 C15.2893594,12.2680783 15.7835892,12.2070937 15.9690842,12.1448385 C16.1545791,12.0825834 16.6500794,11.8983589 16.8952885,11.7738486 C17.1430386,11.6493383 17.7605082,11.5908947 17.7605082,11.5908947 C17.7605082,11.5908947 18.2483854,11.7852832 18.4338804,11.7852832 C18.6193753,11.7852832 19.2241398,11.6772896 19.2241398,11.6772896 C19.2241398,11.6772896 19.5036527,12.5755426 19.5036527,12.7623081 C19.5036527,12.9490736 19.6891477,13.133298 20.0004235,13.2578084 C20.3066173,13.3835892 21.7334039,13.694865 22.3534145,13.1980942 L22.3534145,13.1980942 Z M29.4797247,25.3454738 C29.4797247,25.5309688 29.4174696,26.0277395 29.3552144,26.2754897 C29.2904182,26.5232398 29.1684489,26.9577554 29.1074643,27.2029645 C29.0452091,27.4519852 28.7352038,27.9474854 28.5509794,28.0719958 C28.3654844,28.1965061 28.0542086,28.5687665 27.8699841,28.6297512 C27.6844891,28.6920064 27.5587083,28.1952356 27.6209635,27.9474854 C27.6844891,27.6997353 27.9932239,27.0187401 27.9932239,27.0187401 C27.9932239,27.0187401 28.0554791,26.6477501 28.1164637,26.3987295 C28.1799894,26.1522499 28.9232398,25.8422446 28.9232398,25.8422446 L29.4200106,24.9122287 C29.4174696,24.9109582 29.4797247,25.1612493 29.4797247,25.3454738 L29.4797247,25.3454738 Z M1.97946003,21.6533616 C2.05950238,21.6736898 2.1738486,21.7321334 2.33520381,21.8757014 C2.5689783,22.0789836 2.70746427,22.1831657 3.01746956,22.3089465 C3.32620434,22.4347274 3.45071466,22.6176813 3.82297512,22.8044468 C4.19523557,22.9912123 4.07199576,22.8679725 4.56622552,23.4244574 C5.06299629,23.9809423 5.00074113,23.9809423 5.12398094,24.2922181 C5.24722075,24.6034939 5.43398624,24.9109582 5.55849656,25.0989942 C5.68300688,25.2844891 6.05399682,25.407729 6.23949179,25.5322393 C6.42498677,25.6567496 6.73499206,25.7799894 6.92048703,25.7799894 C7.10725251,25.7799894 7.66500794,26.3377448 7.97501323,26.3987295 C8.28501853,26.4622552 8.28501853,27.0822657 8.28501853,27.0822657 L7.97501323,27.948756 L7.72599259,28.8775013 L7.97501323,29.6207517 C7.97501323,29.6207517 7.60148227,29.9320275 7.35627316,29.9320275 C7.12758073,29.9320275 7.05007941,30.0768661 6.79978825,30.0082583 C4.43663314,27.8013764 2.72271043,24.9147697 1.97946003,21.6533616 L1.97946003,21.6533616 Z" id="Shape"></path>
                </g>
            </g>
        </g>
    </g>
</svg>