<?xml version="1.0" encoding="UTF-8"?>
<svg width="36px" height="36px" viewBox="0 0 36 36" version="1.1" xmlns="http://www.w3.org/2000/svg" xmlns:xlink="http://www.w3.org/1999/xlink">
    <!-- Generator: Sketch 42 (36781) - http://www.bohemiancoding.com/sketch -->
    <title>Zoom_Color</title>
    <desc>Created with Sketch.</desc>
    <defs>
        <path d="M6.26086957,12.3654522 L6.26086957,20.8175067 C6.26086957,22.7192243 7.81812196,24.2608696 9.7374737,24.2608696 L22.0639696,24.2608696 C22.412837,24.2608696 22.6956522,23.9802926 22.6956522,23.6345576 L22.6956522,15.1824913 C22.6956522,13.2807717 21.1383978,11.7391304 19.21905,11.7391304 L6.89255609,11.7391304 C6.54368478,11.7391304 6.26086957,12.0197152 6.26086957,12.3654522 Z M23.4782609,15.663013 L28.5652174,11.9514913 C29.0086826,11.5887522 29.3478261,11.6728826 29.3478261,12.3421891 L29.3478261,23.6720798 C29.3478261,24.4227385 28.9251783,24.337753 28.5652174,24.0627659 L23.4782609,20.351248 L23.4782609,15.663013 Z" id="path-1"></path>
    </defs>
    <g id="Page-1" stroke="none" stroke-width="1" fill="none" fill-rule="evenodd">
        <g id="Social_icons_no_circle" transform="translate(-472.000000, -1281.000000)">
            <g id="Color" transform="translate(71.000000, 182.000000)">
                <g id="Zoom" transform="translate(401.000000, 1099.000000)">
                    <path d="M18,36 C27.9411261,36 36,27.9411261 36,18 C36,8.05887391 27.9411261,0 18,0 C8.05887391,0 0,8.05887391 0,18 C0,27.9411261 8.05887391,36 18,36 Z" id="Oval" fill="#2D8CFF"></path>
                    <mask id="mask-2" fill="white">
                        <use xlink:href="#path-1"></use>
                    </mask>
                    <use id="Clip-14" fill="#FFFFFF" xlink:href="#path-1"></use>
                </g>
            </g>
        </g>
    </g>
</svg>